EESchema Schematic File Version 4
EELAYER 30 0
EELAYER END
$Descr A3 16535 11693
encoding utf-8
Sheet 3 3
Title ""
Date ""
Rev ""
Comp ""
Comment1 "seen from component side"
Comment2 "upper right quadrant of board"
Comment3 "lower right quadrant of board"
Comment4 ""
$EndDescr
$Comp
L Connector:Conn_01x11_Male J3
U 1 1 604C2A15
P 800 1400
F 0 "J3" H 908 2081 50  0000 C CNN
F 1 "Conn_01x11_Male" H 908 1990 50  0000 C CNN
F 2 "" H 800 1400 50  0001 C CNN
F 3 "~" H 800 1400 50  0001 C CNN
	1    800  1400
	1    0    0    -1  
$EndComp
$Comp
L Connector:Conn_01x04_Male J4
U 1 1 604C6F19
P 800 2450
F 0 "J4" H 908 2731 50  0000 C CNN
F 1 "Conn_01x04_Male" H 908 2640 50  0000 C CNN
F 2 "" H 800 2450 50  0001 C CNN
F 3 "~" H 800 2450 50  0001 C CNN
	1    800  2450
	1    0    0    -1  
$EndComp
Text Notes 650  2800 0    50   ~ 0
to CRT tube
Text Notes 600  2050 0    50   ~ 0
to CRT tube pcb
$Comp
L Device:Q_NPN_Darlington_ECB Q87
U 1 1 604C8106
P 2550 2400
F 0 "Q87" H 2741 2446 50  0000 L CNN
F 1 "BD680" H 2741 2355 50  0000 L CNN
F 2 "" H 2750 2500 50  0001 C CNN
F 3 "~" H 2550 2400 50  0001 C CNN
	1    2550 2400
	1    0    0    -1  
$EndComp
$Comp
L Device:Q_NPN_Darlington_ECB Q88
U 1 1 604C8DE1
P 2550 3700
F 0 "Q88" H 2741 3746 50  0000 L CNN
F 1 "BD680" H 2741 3655 50  0000 L CNN
F 2 "" H 2750 3800 50  0001 C CNN
F 3 "~" H 2550 3700 50  0001 C CNN
	1    2550 3700
	1    0    0    -1  
$EndComp
$Comp
L Device:R R104
U 1 1 604C9449
P 2300 2100
F 0 "R104" H 2370 2146 50  0000 L CNN
F 1 "R" H 2370 2055 50  0000 L CNN
F 2 "" V 2230 2100 50  0001 C CNN
F 3 "~" H 2300 2100 50  0001 C CNN
	1    2300 2100
	1    0    0    -1  
$EndComp
Wire Wire Line
	2300 2250 2300 2350
Wire Wire Line
	2300 2400 2350 2400
$Comp
L Device:D CR82
U 1 1 604C987A
P 2300 1650
F 0 "CR82" V 2254 1730 50  0000 L CNN
F 1 "D" V 2345 1730 50  0000 L CNN
F 2 "" H 2300 1650 50  0001 C CNN
F 3 "~" H 2300 1650 50  0001 C CNN
	1    2300 1650
	0    1    1    0   
$EndComp
Wire Wire Line
	2300 1800 2300 1950
$Comp
L Device:D CR63
U 1 1 604C9C63
P 2300 1200
F 0 "CR63" V 2254 1280 50  0000 L CNN
F 1 "D" V 2345 1280 50  0000 L CNN
F 2 "" H 2300 1200 50  0001 C CNN
F 3 "~" H 2300 1200 50  0001 C CNN
	1    2300 1200
	0    1    1    0   
$EndComp
Wire Wire Line
	2300 1350 2300 1500
$Comp
L Device:D CR84
U 1 1 604CA120
P 2800 1200
F 0 "CR84" V 2846 1120 50  0000 R CNN
F 1 "D" V 2755 1120 50  0000 R CNN
F 2 "" H 2800 1200 50  0001 C CNN
F 3 "~" H 2800 1200 50  0001 C CNN
	1    2800 1200
	0    -1   -1   0   
$EndComp
Wire Wire Line
	2300 1050 2300 950 
Wire Wire Line
	2300 950  2800 950 
Wire Wire Line
	2800 950  2800 1050
$Comp
L Device:CP C89
U 1 1 604CA958
P 3250 1200
F 0 "C89" H 3368 1246 50  0000 L CNN
F 1 "10 uF" H 3368 1155 50  0000 L CNN
F 2 "" H 3288 1050 50  0001 C CNN
F 3 "~" H 3250 1200 50  0001 C CNN
	1    3250 1200
	1    0    0    -1  
$EndComp
Wire Wire Line
	2800 1350 2800 1450
Wire Wire Line
	2800 1450 3250 1450
Wire Wire Line
	3250 1450 3250 1350
Wire Wire Line
	2800 1450 2150 1450
Connection ~ 2800 1450
Wire Wire Line
	3250 1050 3250 900 
Wire Wire Line
	3250 900  2100 900 
Wire Wire Line
	2100 900  2100 2350
Wire Wire Line
	2100 2350 2300 2350
Connection ~ 2300 2350
Wire Wire Line
	2300 2350 2300 2400
Wire Wire Line
	1000 2550 2300 2550
Wire Wire Line
	2650 3350 2650 3500
$Comp
L Device:R R115
U 1 1 604CDB6B
P 2650 2900
F 0 "R115" H 2720 2946 50  0000 L CNN
F 1 "R" H 2720 2855 50  0000 L CNN
F 2 "" V 2580 2900 50  0001 C CNN
F 3 "~" H 2650 2900 50  0001 C CNN
	1    2650 2900
	1    0    0    -1  
$EndComp
Wire Wire Line
	2300 2550 2300 3150
Wire Wire Line
	2650 2600 2650 2750
Wire Wire Line
	2650 3050 2650 3150
Wire Wire Line
	2650 3150 2300 3150
Connection ~ 2300 3150
$Comp
L Device:R R106
U 1 1 604CE79B
P 2650 4150
F 0 "R106" H 2720 4196 50  0000 L CNN
F 1 "R" H 2720 4105 50  0000 L CNN
F 2 "" V 2580 4150 50  0001 C CNN
F 3 "~" H 2650 4150 50  0001 C CNN
	1    2650 4150
	1    0    0    -1  
$EndComp
Wire Wire Line
	2650 4000 2650 3900
Wire Wire Line
	2300 4400 2650 4400
Wire Wire Line
	2650 4400 2650 4300
Wire Wire Line
	2300 3150 2300 4400
$Comp
L Device:R R105
U 1 1 604CF41D
P 3250 2350
F 0 "R105" H 3320 2396 50  0000 L CNN
F 1 "R" H 3320 2305 50  0000 L CNN
F 2 "" V 3180 2350 50  0001 C CNN
F 3 "~" H 3250 2350 50  0001 C CNN
	1    3250 2350
	1    0    0    -1  
$EndComp
Wire Wire Line
	2650 2200 2650 2100
Wire Wire Line
	2650 2100 3250 2100
Wire Wire Line
	3250 2100 3250 2200
$Comp
L Device:D CR85
U 1 1 604CFFAA
P 4300 2350
F 0 "CR85" V 4254 2430 50  0000 L CNN
F 1 "D" V 4345 2430 50  0000 L CNN
F 2 "" H 4300 2350 50  0001 C CNN
F 3 "~" H 4300 2350 50  0001 C CNN
	1    4300 2350
	0    1    1    0   
$EndComp
Connection ~ 3250 2100
$Comp
L Device:R R103
U 1 1 604D0C9A
P 3250 2900
F 0 "R103" H 3320 2946 50  0000 L CNN
F 1 "R" H 3320 2855 50  0000 L CNN
F 2 "" V 3180 2900 50  0001 C CNN
F 3 "~" H 3250 2900 50  0001 C CNN
	1    3250 2900
	1    0    0    -1  
$EndComp
Wire Wire Line
	3250 2750 3250 2650
$Comp
L Device:CP C88
U 1 1 604D1F0F
P 3650 2900
F 0 "C88" H 3768 2946 50  0000 L CNN
F 1 "10 uF" H 3768 2855 50  0000 L CNN
F 2 "" H 3688 2750 50  0001 C CNN
F 3 "~" H 3650 2900 50  0001 C CNN
	1    3650 2900
	1    0    0    -1  
$EndComp
Wire Wire Line
	3650 2750 3650 2650
Wire Wire Line
	3650 2650 3250 2650
Connection ~ 3250 2650
Wire Wire Line
	3250 2650 3250 2500
Wire Wire Line
	3650 3050 3650 3150
Wire Wire Line
	3650 3150 2650 3150
Connection ~ 2650 3150
Wire Wire Line
	3250 3050 3250 3100
Wire Wire Line
	3250 3100 3150 3100
Wire Wire Line
	3150 3100 3150 1650
Wire Wire Line
	3150 1650 3650 1650
Wire Wire Line
	3650 1650 3650 800 
Wire Wire Line
	3650 800  3250 800 
Wire Wire Line
	3250 800  3250 900 
Connection ~ 3250 900 
$Comp
L Device:C C91
U 1 1 604D4F62
P 4300 3350
F 0 "C91" H 4415 3396 50  0000 L CNN
F 1 "2200 uF" H 4415 3305 50  0000 L CNN
F 2 "" H 4338 3200 50  0001 C CNN
F 3 "~" H 4300 3350 50  0001 C CNN
	1    4300 3350
	1    0    0    -1  
$EndComp
Wire Wire Line
	3250 3350 2650 3350
$Comp
L Device:C C85
U 1 1 604D6207
P 4300 2950
F 0 "C85" H 4415 2996 50  0000 L CNN
F 1 "2200 uF" H 4415 2905 50  0000 L CNN
F 2 "" H 4338 2800 50  0001 C CNN
F 3 "~" H 4300 2950 50  0001 C CNN
	1    4300 2950
	1    0    0    -1  
$EndComp
Wire Wire Line
	2150 3700 2350 3700
Wire Wire Line
	2150 1450 2150 3700
$Comp
L power:-12V #PWR0103
U 1 1 604DC1B8
P 850 3200
F 0 "#PWR0103" H 850 3300 50  0001 C CNN
F 1 "-12V" H 865 3373 50  0000 C CNN
F 2 "" H 850 3200 50  0001 C CNN
F 3 "" H 850 3200 50  0001 C CNN
	1    850  3200
	1    0    0    -1  
$EndComp
Wire Wire Line
	2650 3350 850  3350
Wire Wire Line
	850  3350 850  3200
Connection ~ 2650 3350
Wire Wire Line
	4300 2800 4300 2650
Wire Wire Line
	4300 2100 4300 2200
Wire Wire Line
	3250 2100 3500 2100
Wire Wire Line
	4300 3200 4300 3150
Wire Wire Line
	4300 3500 4300 3550
Wire Wire Line
	4300 3550 3600 3550
Wire Wire Line
	3250 3350 3250 3550
$Comp
L Device:R R101
U 1 1 604E45C5
P 3250 3800
F 0 "R101" H 3320 3846 50  0000 L CNN
F 1 "R" H 3320 3755 50  0000 L CNN
F 2 "" V 3180 3800 50  0001 C CNN
F 3 "~" H 3250 3800 50  0001 C CNN
	1    3250 3800
	1    0    0    -1  
$EndComp
Wire Wire Line
	3250 3650 3250 3550
Connection ~ 3250 3550
$Comp
L Device:Q_NPN_CBE Q86
U 1 1 604E6325
P 3900 4100
F 0 "Q86" H 4091 4146 50  0000 L CNN
F 1 "BC489" H 4091 4055 50  0000 L CNN
F 2 "" H 4100 4200 50  0001 C CNN
F 3 "~" H 3900 4100 50  0001 C CNN
	1    3900 4100
	1    0    0    -1  
$EndComp
Wire Wire Line
	4000 4300 4000 4450
Wire Wire Line
	4000 4450 3600 4450
Wire Wire Line
	3600 4450 3600 3550
Connection ~ 3600 3550
Wire Wire Line
	3600 3550 3250 3550
Wire Wire Line
	3250 3950 3250 4000
Wire Wire Line
	3250 4100 3700 4100
Wire Wire Line
	4000 3900 4000 3650
Wire Wire Line
	4000 3300 2100 3300
Connection ~ 2100 2350
Wire Wire Line
	2100 2350 2100 3300
$Comp
L Device:C C87
U 1 1 604EB7F5
P 3700 3800
F 0 "C87" H 3815 3846 50  0000 L CNN
F 1 "C" H 3815 3755 50  0000 L CNN
F 2 "" H 3738 3650 50  0001 C CNN
F 3 "~" H 3700 3800 50  0001 C CNN
	1    3700 3800
	1    0    0    -1  
$EndComp
Wire Wire Line
	3700 3950 3700 4000
Wire Wire Line
	3700 4000 3250 4000
Connection ~ 3250 4000
Wire Wire Line
	3250 4000 3250 4100
Wire Wire Line
	3700 3650 4000 3650
Connection ~ 4000 3650
Wire Wire Line
	4000 3650 4000 3300
$Comp
L power:+12V #PWR0104
U 1 1 604EE814
P 850 3750
F 0 "#PWR0104" H 850 3600 50  0001 C CNN
F 1 "+12V" H 865 3923 50  0000 C CNN
F 2 "" H 850 3750 50  0001 C CNN
F 3 "" H 850 3750 50  0001 C CNN
	1    850  3750
	1    0    0    -1  
$EndComp
Wire Wire Line
	4300 2650 4100 2650
Wire Wire Line
	4100 2650 4100 3250
Wire Wire Line
	4100 3250 1050 3250
Wire Wire Line
	1050 3250 1050 3850
Wire Wire Line
	1050 3850 850  3850
Wire Wire Line
	850  3850 850  3750
Connection ~ 4300 2650
Wire Wire Line
	4300 2650 4300 2500
$Comp
L Device:Q_NPN_CBE Q90
U 1 1 604F14C3
P 5550 3300
F 0 "Q90" H 5741 3346 50  0000 L CNN
F 1 "BC489B" H 5741 3255 50  0000 L CNN
F 2 "" H 5750 3400 50  0001 C CNN
F 3 "~" H 5550 3300 50  0001 C CNN
	1    5550 3300
	1    0    0    -1  
$EndComp
Wire Wire Line
	5650 3600 5650 3500
Wire Wire Line
	4800 3600 4950 3600
$Comp
L Device:R R108
U 1 1 604F592D
P 5650 2750
F 0 "R108" H 5720 2796 50  0000 L CNN
F 1 "R" H 5720 2705 50  0000 L CNN
F 2 "" V 5580 2750 50  0001 C CNN
F 3 "~" H 5650 2750 50  0001 C CNN
	1    5650 2750
	1    0    0    -1  
$EndComp
Wire Wire Line
	5650 3100 5650 2900
$Comp
L Device:Q_PNP_CBE Q89
U 1 1 604F7F40
P 6050 2300
F 0 "Q89" H 6241 2346 50  0000 L CNN
F 1 "BC490B" H 6241 2255 50  0000 L CNN
F 2 "" H 6250 2400 50  0001 C CNN
F 3 "~" H 6050 2300 50  0001 C CNN
	1    6050 2300
	1    0    0    -1  
$EndComp
Wire Wire Line
	5650 2600 5650 2300
$Comp
L Device:R R107
U 1 1 604FA785
P 6150 2750
F 0 "R107" H 6220 2796 50  0000 L CNN
F 1 "R" H 6220 2705 50  0000 L CNN
F 2 "" V 6080 2750 50  0001 C CNN
F 3 "~" H 6150 2750 50  0001 C CNN
	1    6150 2750
	1    0    0    -1  
$EndComp
Wire Wire Line
	6150 2600 6150 2550
Wire Wire Line
	6150 2900 6150 3000
Wire Wire Line
	6150 3000 5900 3000
Wire Wire Line
	5900 3000 5900 2450
Wire Wire Line
	5750 2300 5750 2450
Wire Wire Line
	5750 2450 5900 2450
$Comp
L Device:D CR86
U 1 1 60502ADB
P 6550 2750
F 0 "CR86" V 6504 2830 50  0000 L CNN
F 1 "D" V 6595 2830 50  0000 L CNN
F 2 "" H 6550 2750 50  0001 C CNN
F 3 "~" H 6550 2750 50  0001 C CNN
	1    6550 2750
	0    1    1    0   
$EndComp
Wire Wire Line
	6550 2600 6550 2550
Wire Wire Line
	6550 2550 6150 2550
Connection ~ 6150 2550
Wire Wire Line
	6150 2550 6150 2500
$Comp
L Device:R R113
U 1 1 60506171
P 5450 4800
F 0 "R113" H 5520 4846 50  0000 L CNN
F 1 "R" H 5520 4755 50  0000 L CNN
F 2 "" V 5380 4800 50  0001 C CNN
F 3 "~" H 5450 4800 50  0001 C CNN
	1    5450 4800
	1    0    0    -1  
$EndComp
Wire Wire Line
	6550 3050 6550 2900
$Comp
L Device:R R112
U 1 1 60508995
P 7450 2750
F 0 "R112" H 7520 2796 50  0000 L CNN
F 1 "R" H 7520 2705 50  0000 L CNN
F 2 "" V 7380 2750 50  0001 C CNN
F 3 "~" H 7450 2750 50  0001 C CNN
	1    7450 2750
	1    0    0    -1  
$EndComp
Wire Wire Line
	7450 2900 7450 3050
Wire Wire Line
	7450 2600 7450 2500
Wire Wire Line
	7450 2500 6150 2500
Connection ~ 6150 2500
Wire Wire Line
	6150 2500 5350 2500
$Comp
L Device:R R77
U 1 1 6050EE0D
P 5100 4800
F 0 "R77" H 5170 4846 50  0000 L CNN
F 1 "R" H 5170 4755 50  0000 L CNN
F 2 "" V 5030 4800 50  0001 C CNN
F 3 "~" H 5100 4800 50  0001 C CNN
	1    5100 4800
	1    0    0    -1  
$EndComp
Wire Wire Line
	1150 4950 1150 2650
Wire Wire Line
	1150 2650 1000 2650
$Comp
L Device:R R98
U 1 1 60512793
P 1950 5200
F 0 "R98" H 2020 5246 50  0000 L CNN
F 1 "R" H 2020 5155 50  0000 L CNN
F 2 "" V 1880 5200 50  0001 C CNN
F 3 "~" H 1950 5200 50  0001 C CNN
	1    1950 5200
	1    0    0    -1  
$EndComp
Wire Wire Line
	1950 4950 1950 5050
$Comp
L Device:R R100
U 1 1 60515AD3
P 2750 4800
F 0 "R100" H 2820 4846 50  0000 L CNN
F 1 "R" H 2820 4755 50  0000 L CNN
F 2 "" V 2680 4800 50  0001 C CNN
F 3 "~" H 2750 4800 50  0001 C CNN
	1    2750 4800
	1    0    0    -1  
$EndComp
Connection ~ 1950 4950
Wire Wire Line
	6550 3050 7450 3050
Wire Wire Line
	6550 3050 6550 3850
Connection ~ 6550 3050
$Comp
L Device:Transformer_1P_1S T43
U 1 1 6052D60A
P 4450 1100
F 0 "T43" H 4450 1481 50  0000 C CNN
F 1 "Transformer_1P_1S" H 4450 1390 50  0000 C CNN
F 2 "" H 4450 1100 50  0001 C CNN
F 3 "~" H 4450 1100 50  0001 C CNN
	1    4450 1100
	1    0    0    -1  
$EndComp
Wire Wire Line
	4050 900  3700 900 
Wire Wire Line
	3700 900  3700 750 
Wire Wire Line
	3700 750  2000 750 
Wire Wire Line
	2000 750  2000 2450
Wire Wire Line
	2000 2450 1000 2450
Wire Wire Line
	4300 3150 3950 3150
Wire Wire Line
	3950 3150 3950 1400
Wire Wire Line
	3950 1300 4050 1300
Connection ~ 4300 3150
Wire Wire Line
	4300 3150 4300 3100
Wire Wire Line
	5650 2300 5750 2300
Connection ~ 5750 2300
Wire Wire Line
	5750 2300 5850 2300
Wire Wire Line
	4800 3600 4800 2100
Wire Wire Line
	4800 2100 4300 2100
Connection ~ 4300 2100
$Comp
L Device:C C46
U 1 1 60555D02
P 5050 1600
F 0 "C46" H 5165 1646 50  0000 L CNN
F 1 "C" H 5165 1555 50  0000 L CNN
F 2 "" H 5088 1450 50  0001 C CNN
F 3 "~" H 5050 1600 50  0001 C CNN
	1    5050 1600
	1    0    0    -1  
$EndComp
Wire Wire Line
	5050 1450 5050 1400
Wire Wire Line
	5050 1400 4600 1400
Connection ~ 3950 1400
Wire Wire Line
	3950 1400 3950 1300
$Comp
L Device:C C50
U 1 1 6055A224
P 5500 1600
F 0 "C50" H 5615 1646 50  0000 L CNN
F 1 "7.5 nF" H 5615 1555 50  0000 L CNN
F 2 "" H 5538 1450 50  0001 C CNN
F 3 "~" H 5500 1600 50  0001 C CNN
	1    5500 1600
	1    0    0    -1  
$EndComp
Wire Wire Line
	5050 1400 5500 1400
Wire Wire Line
	5500 1400 5500 1450
Connection ~ 5050 1400
$Comp
L Device:R R58
U 1 1 6055EA61
P 5950 1600
F 0 "R58" H 6020 1646 50  0000 L CNN
F 1 "R" H 6020 1555 50  0000 L CNN
F 2 "" V 5880 1600 50  0001 C CNN
F 3 "~" H 5950 1600 50  0001 C CNN
	1    5950 1600
	1    0    0    -1  
$EndComp
Wire Wire Line
	5500 1400 5950 1400
Wire Wire Line
	5950 1400 5950 1450
Connection ~ 5500 1400
$Comp
L Device:D CR49
U 1 1 605633CB
P 6400 1600
F 0 "CR49" V 6446 1520 50  0000 R CNN
F 1 "D" V 6355 1520 50  0000 R CNN
F 2 "" H 6400 1600 50  0001 C CNN
F 3 "~" H 6400 1600 50  0001 C CNN
	1    6400 1600
	0    -1   -1   0   
$EndComp
Wire Wire Line
	5950 1400 6400 1400
Wire Wire Line
	6400 1400 6400 1450
Connection ~ 5950 1400
$Comp
L Transistor_BJT:MJE13009G Q47
U 1 1 605686DB
P 7250 1850
F 0 "Q47" H 7442 1896 50  0000 L CNN
F 1 "MJE13009E" H 7442 1805 50  0000 L CNN
F 2 "Package_TO_SOT_THT:TO-220-3_Vertical" H 7500 1775 50  0001 L CIN
F 3 "http://www.onsemi.com/pub_link/Collateral/MJE13009-D.PDF" H 7250 1850 50  0001 L CNN
	1    7250 1850
	1    0    0    -1  
$EndComp
Wire Wire Line
	7350 2050 7350 2150
Wire Wire Line
	7350 2150 6950 2150
Wire Wire Line
	6950 2150 6950 2000
Wire Wire Line
	6950 2000 5950 2000
Wire Wire Line
	5950 2000 5950 1750
Wire Wire Line
	5500 1750 5500 1850
$Comp
L Device:R R56
U 1 1 60577FF8
P 5050 2000
F 0 "R56" H 5120 2046 50  0000 L CNN
F 1 "R" H 5120 1955 50  0000 L CNN
F 2 "" V 4980 2000 50  0001 C CNN
F 3 "~" H 5050 2000 50  0001 C CNN
	1    5050 2000
	1    0    0    -1  
$EndComp
Wire Wire Line
	5050 1750 5050 1850
Wire Wire Line
	5050 2150 5050 2200
Wire Wire Line
	5050 2200 5300 2200
Wire Wire Line
	5300 1900 6900 1900
Wire Wire Line
	6900 1900 6900 1850
Wire Wire Line
	6900 1850 7050 1850
Wire Wire Line
	5300 1900 5300 2200
$Comp
L Device:D D49
U 1 1 60589505
P 6800 1600
F 0 "D49" V 6846 1520 50  0000 R CNN
F 1 "D" V 6755 1520 50  0000 R CNN
F 2 "" H 6800 1600 50  0001 C CNN
F 3 "~" H 6800 1600 50  0001 C CNN
	1    6800 1600
	0    -1   -1   0   
$EndComp
Connection ~ 6800 1750
Wire Wire Line
	6800 1750 7100 1750
Wire Wire Line
	6400 1400 6800 1400
Wire Wire Line
	6800 1400 6800 1450
Connection ~ 6400 1400
Wire Wire Line
	6800 1850 6800 1750
Wire Wire Line
	5500 1850 6800 1850
Wire Wire Line
	6400 1750 6800 1750
$Comp
L Device:C C49
U 1 1 60595C2C
P 7700 1600
F 0 "C49" H 7815 1646 50  0000 L CNN
F 1 "C" H 7815 1555 50  0000 L CNN
F 2 "" H 7738 1450 50  0001 C CNN
F 3 "~" H 7700 1600 50  0001 C CNN
	1    7700 1600
	1    0    0    -1  
$EndComp
Wire Wire Line
	7700 1450 7700 1400
Wire Wire Line
	7700 1400 7500 1400
Wire Wire Line
	7350 1400 7100 1400
Connection ~ 7350 1400
Wire Wire Line
	7100 1400 7100 1750
Wire Wire Line
	7350 1400 7350 1650
$Comp
L Device:L_Core_Ferrite L42
U 1 1 605A2DD7
P 8300 1600
F 0 "L42" H 8388 1646 50  0000 L CNN
F 1 "L_Core_Ferrite" H 8388 1555 50  0000 L CNN
F 2 "" H 8300 1600 50  0001 C CNN
F 3 "~" H 8300 1600 50  0001 C CNN
	1    8300 1600
	1    0    0    -1  
$EndComp
Wire Wire Line
	7700 1750 7700 1800
Wire Wire Line
	7700 1800 8300 1800
Wire Wire Line
	8300 1800 8300 1750
Text Notes 8350 1800 0    50   ~ 0
Width
$Comp
L Device:C C61
U 1 1 605AAE6E
P 9050 1600
F 0 "C61" H 9165 1646 50  0000 L CNN
F 1 "C" H 9165 1555 50  0000 L CNN
F 2 "" H 9088 1450 50  0001 C CNN
F 3 "~" H 9050 1600 50  0001 C CNN
	1    9050 1600
	1    0    0    -1  
$EndComp
Wire Wire Line
	8300 1800 9050 1800
Wire Wire Line
	9050 1800 9050 1750
Connection ~ 8300 1800
$Comp
L Device:L_Core_Ferrite L43
U 1 1 605B1A6C
P 8300 1150
F 0 "L43" H 8388 1196 50  0000 L CNN
F 1 "L_Core_Ferrite" H 8388 1105 50  0000 L CNN
F 2 "" H 8300 1150 50  0001 C CNN
F 3 "~" H 8300 1150 50  0001 C CNN
	1    8300 1150
	1    0    0    -1  
$EndComp
Wire Wire Line
	8300 1300 8300 1400
Text Notes 8350 1350 0    50   ~ 0
hor. lin.
$Comp
L Device:R R68
U 1 1 605BA06B
P 8000 1150
F 0 "R68" H 8070 1196 50  0000 L CNN
F 1 "R" H 8070 1105 50  0000 L CNN
F 2 "" V 7930 1150 50  0001 C CNN
F 3 "~" H 8000 1150 50  0001 C CNN
	1    8000 1150
	1    0    0    -1  
$EndComp
Wire Wire Line
	8000 1000 8000 950 
Wire Wire Line
	8000 950  8300 950 
Wire Wire Line
	8300 950  8300 1000
Wire Wire Line
	8000 1300 8000 1400
Wire Wire Line
	8000 1400 8300 1400
Connection ~ 8300 1400
Wire Wire Line
	8300 1400 8300 1450
$Comp
L Device:R R74
U 1 1 605C74F4
P 9050 1150
F 0 "R74" H 9120 1196 50  0000 L CNN
F 1 "R" H 9120 1105 50  0000 L CNN
F 2 "" V 8980 1150 50  0001 C CNN
F 3 "~" H 9050 1150 50  0001 C CNN
	1    9050 1150
	1    0    0    -1  
$EndComp
Wire Wire Line
	9050 1300 9050 1450
Wire Wire Line
	9050 1000 9050 950 
Wire Wire Line
	9050 950  8300 950 
Connection ~ 8300 950 
Wire Wire Line
	1000 2350 1950 2350
Wire Wire Line
	1950 2350 1950 500 
Wire Wire Line
	1950 500  8000 500 
Wire Wire Line
	8000 500  8000 950 
Connection ~ 8000 950 
NoConn ~ 1000 1400
NoConn ~ 1000 1600
NoConn ~ 1000 1800
$Comp
L Device:CP C83
U 1 1 605F2173
P 1950 5900
F 0 "C83" H 1832 5854 50  0000 R CNN
F 1 "10 uF" H 1832 5945 50  0000 R CNN
F 2 "" H 1988 5750 50  0001 C CNN
F 3 "~" H 1950 5900 50  0001 C CNN
	1    1950 5900
	-1   0    0    1   
$EndComp
Wire Wire Line
	1950 5750 1950 5650
$Comp
L Device:R R95
U 1 1 605FA5A4
P 2400 5900
F 0 "R95" H 2470 5946 50  0000 L CNN
F 1 "R" H 2470 5855 50  0000 L CNN
F 2 "" V 2330 5900 50  0001 C CNN
F 3 "~" H 2400 5900 50  0001 C CNN
	1    2400 5900
	1    0    0    -1  
$EndComp
Wire Wire Line
	2400 5750 2400 5650
Wire Wire Line
	2400 5650 1950 5650
Connection ~ 1950 5650
Wire Wire Line
	1950 5650 1950 5350
$Comp
L Transistor_BJT:BC558 Q83
U 1 1 60602DD9
P 2950 6150
F 0 "Q83" H 3141 6196 50  0000 L CNN
F 1 "BC558B" H 3141 6105 50  0000 L CNN
F 2 "Package_TO_SOT_THT:TO-92_Inline" H 3150 6075 50  0001 L CIN
F 3 "https://www.onsemi.com/pub/Collateral/BC556BTA-D.pdf" H 2950 6150 50  0001 L CNN
	1    2950 6150
	1    0    0    -1  
$EndComp
Wire Wire Line
	2400 5650 3050 5650
Connection ~ 2400 5650
$Comp
L Transistor_BJT:BC558 Q81
U 1 1 6060B760
P 2100 6800
F 0 "Q81" H 2291 6846 50  0000 L CNN
F 1 "BC558B" H 2291 6755 50  0000 L CNN
F 2 "Package_TO_SOT_THT:TO-92_Inline" H 2300 6725 50  0001 L CIN
F 3 "https://www.onsemi.com/pub/Collateral/BC556BTA-D.pdf" H 2100 6800 50  0001 L CNN
	1    2100 6800
	1    0    0    -1  
$EndComp
Wire Wire Line
	2200 7000 2200 7150
Wire Wire Line
	2200 7150 2750 7150
$Comp
L Device:C C82
U 1 1 6061E78A
P 3450 5900
F 0 "C82" H 3565 5946 50  0000 L CNN
F 1 "C" H 3565 5855 50  0000 L CNN
F 2 "" H 3488 5750 50  0001 C CNN
F 3 "~" H 3450 5900 50  0001 C CNN
	1    3450 5900
	1    0    0    -1  
$EndComp
Wire Wire Line
	3450 5650 3450 5750
$Comp
L Device:C C81
U 1 1 6063A64B
P 4100 6800
F 0 "C81" H 4215 6846 50  0000 L CNN
F 1 "C" H 4215 6755 50  0000 L CNN
F 2 "" H 4138 6650 50  0001 C CNN
F 3 "~" H 4100 6800 50  0001 C CNN
	1    4100 6800
	1    0    0    -1  
$EndComp
Wire Wire Line
	4100 6950 4100 7150
Wire Wire Line
	4100 6650 4100 6150
Wire Wire Line
	4100 6150 3450 6150
Wire Wire Line
	3450 6150 3450 6050
$Comp
L Device:R_POT_TRIM R92
U 1 1 6064E525
P 4550 6000
F 0 "R92" H 4480 6046 50  0000 R CNN
F 1 "R_POT_TRIM" H 4480 5955 50  0000 R CNN
F 2 "" H 4550 6000 50  0001 C CNN
F 3 "~" H 4550 6000 50  0001 C CNN
	1    4550 6000
	1    0    0    -1  
$EndComp
Wire Wire Line
	4100 6150 4550 6150
Connection ~ 4100 6150
Text Notes 4350 6250 0    50   ~ 0
vert. lin.
$Comp
L Device:R R91
U 1 1 60659361
P 4900 6000
F 0 "R91" H 4970 6046 50  0000 L CNN
F 1 "R" H 4970 5955 50  0000 L CNN
F 2 "" V 4830 6000 50  0001 C CNN
F 3 "~" H 4900 6000 50  0001 C CNN
	1    4900 6000
	1    0    0    -1  
$EndComp
Wire Wire Line
	4550 5850 4550 5800
Wire Wire Line
	4550 5750 4900 5750
Wire Wire Line
	4900 5750 4900 5850
Wire Wire Line
	4700 6000 4750 6000
Wire Wire Line
	4750 6000 4750 5800
Wire Wire Line
	4750 5800 4550 5800
Connection ~ 4550 5800
Wire Wire Line
	4550 5800 4550 5750
Wire Wire Line
	4900 6150 4900 6400
$Comp
L Device:R R90
U 1 1 60684AD4
P 3750 6800
F 0 "R90" H 3680 6846 50  0000 R CNN
F 1 "R" H 3680 6755 50  0000 R CNN
F 2 "" V 3680 6800 50  0001 C CNN
F 3 "~" H 3750 6800 50  0001 C CNN
	1    3750 6800
	-1   0    0    -1  
$EndComp
Connection ~ 4900 6400
$Comp
L Device:R_POT_TRIM R96
U 1 1 6069B665
P 5950 6000
F 0 "R96" H 5880 6046 50  0000 R CNN
F 1 "R_POT_TRIM" H 5880 5955 50  0000 R CNN
F 2 "" H 5950 6000 50  0001 C CNN
F 3 "~" H 5950 6000 50  0001 C CNN
	1    5950 6000
	1    0    0    -1  
$EndComp
Wire Wire Line
	5950 6150 5950 6250
Wire Wire Line
	6100 6000 6150 6000
Wire Wire Line
	6150 6000 6150 6250
Wire Wire Line
	6150 6250 5950 6250
Connection ~ 5950 6250
Wire Wire Line
	5950 6250 5950 6400
Text Notes 5850 6200 0    50   ~ 0
height
$Comp
L Device:CP C86
U 1 1 606B3DFB
P 5950 5250
F 0 "C86" H 5832 5204 50  0000 R CNN
F 1 "10 uF" H 5832 5295 50  0000 R CNN
F 2 "" H 5988 5100 50  0001 C CNN
F 3 "~" H 5950 5250 50  0001 C CNN
	1    5950 5250
	-1   0    0    1   
$EndComp
Wire Wire Line
	5950 5850 5950 5400
Connection ~ 2750 4950
Wire Wire Line
	5950 4600 4400 4600
Wire Wire Line
	2750 4600 2750 4650
Wire Wire Line
	1950 4950 2750 4950
Wire Wire Line
	2750 6150 2750 7150
Wire Wire Line
	3050 6400 3050 6350
Wire Wire Line
	3050 6400 3750 6400
Wire Wire Line
	3050 5950 3050 5650
Connection ~ 3050 5650
Wire Wire Line
	3050 5650 3450 5650
Wire Wire Line
	5450 4650 5450 3850
Wire Wire Line
	5450 3850 6550 3850
$Comp
L Device:R R60
U 1 1 607F8223
P 1650 750
F 0 "R60" V 1443 750 50  0000 C CNN
F 1 "R" V 1534 750 50  0000 C CNN
F 2 "" V 1580 750 50  0001 C CNN
F 3 "~" H 1650 750 50  0001 C CNN
	1    1650 750 
	0    1    1    0   
$EndComp
Wire Wire Line
	1000 900  1300 900 
Wire Wire Line
	1300 900  1300 750 
Wire Wire Line
	1300 750  1500 750 
Wire Wire Line
	1000 1000 1200 1000
$Comp
L Device:D CR56
U 1 1 60441B12
P 4800 5300
F 0 "CR56" V 4846 5220 50  0000 R CNN
F 1 "D" V 4755 5220 50  0000 R CNN
F 2 "" H 4800 5300 50  0001 C CNN
F 3 "~" H 4800 5300 50  0001 C CNN
	1    4800 5300
	0    -1   -1   0   
$EndComp
$Comp
L Device:CP C64
U 1 1 60442680
P 5200 5300
F 0 "C64" H 5318 5346 50  0000 L CNN
F 1 "CP" H 5318 5255 50  0000 L CNN
F 2 "" H 5238 5150 50  0001 C CNN
F 3 "~" H 5200 5300 50  0001 C CNN
	1    5200 5300
	1    0    0    -1  
$EndComp
Wire Wire Line
	1950 4800 1950 2700
Wire Wire Line
	1950 2700 1800 2700
Wire Wire Line
	1800 2700 1800 1200
Wire Wire Line
	1800 1200 1150 1200
Wire Wire Line
	1150 1200 1150 1100
Wire Wire Line
	1150 1100 1000 1100
Wire Wire Line
	2300 4800 2300 5100
Wire Wire Line
	1950 4800 2300 4800
$Comp
L Device:C C53
U 1 1 60470CA9
P 3700 5300
F 0 "C53" H 3815 5346 50  0000 L CNN
F 1 "C" H 3815 5255 50  0000 L CNN
F 2 "" H 3738 5150 50  0001 C CNN
F 3 "~" H 3700 5300 50  0001 C CNN
	1    3700 5300
	1    0    0    -1  
$EndComp
Wire Wire Line
	3700 5100 3700 5150
$Comp
L Device:D CR53
U 1 1 60480CA3
P 4600 4900
F 0 "CR53" V 4646 4820 50  0000 R CNN
F 1 "D" V 4555 4820 50  0000 R CNN
F 2 "" H 4600 4900 50  0001 C CNN
F 3 "~" H 4600 4900 50  0001 C CNN
	1    4600 4900
	0    1    1    0   
$EndComp
$Comp
L Device:C C62
U 1 1 604AF321
P 4100 5300
F 0 "C62" H 4215 5346 50  0000 L CNN
F 1 "470" H 4215 5255 50  0000 L CNN
F 2 "" H 4138 5150 50  0001 C CNN
F 3 "~" H 4100 5300 50  0001 C CNN
	1    4100 5300
	1    0    0    -1  
$EndComp
Wire Wire Line
	3700 5100 4100 5100
Wire Wire Line
	4100 5100 4100 5150
Connection ~ 3700 5100
$Comp
L Device:C C63
U 1 1 604C1411
P 4800 6750
F 0 "C63" H 4915 6796 50  0000 L CNN
F 1 "1000" H 4915 6705 50  0000 L CNN
F 2 "" H 4838 6600 50  0001 C CNN
F 3 "~" H 4800 6750 50  0001 C CNN
	1    4800 6750
	1    0    0    -1  
$EndComp
Wire Wire Line
	4800 5450 4800 6600
Wire Wire Line
	4800 5100 4800 5150
Connection ~ 4100 5100
$Comp
L Device:Q_NPN_ECB Q48
U 1 1 604E2C14
P 4700 7250
F 0 "Q48" H 4890 7296 50  0000 L CNN
F 1 "BF487" H 4890 7205 50  0000 L CNN
F 2 "" H 4900 7350 50  0001 C CNN
F 3 "~" H 4700 7250 50  0001 C CNN
	1    4700 7250
	1    0    0    -1  
$EndComp
Wire Wire Line
	4800 7050 4800 7000
Wire Wire Line
	4800 5100 5200 5100
Wire Wire Line
	5200 5100 5200 5150
Connection ~ 4800 5100
Wire Wire Line
	4900 6400 5950 6400
Wire Wire Line
	5200 7550 4800 7550
Wire Wire Line
	4800 7550 4800 7450
Wire Wire Line
	4500 7250 4450 7250
Wire Wire Line
	4450 7250 4450 6600
Wire Wire Line
	4450 6600 4800 6600
Connection ~ 4800 6600
$Comp
L Device:R R79
U 1 1 60538973
P 5400 7250
F 0 "R79" H 5470 7296 50  0000 L CNN
F 1 "R" H 5470 7205 50  0000 L CNN
F 2 "" V 5330 7250 50  0001 C CNN
F 3 "~" H 5400 7250 50  0001 C CNN
	1    5400 7250
	1    0    0    -1  
$EndComp
$Comp
L Device:R R80
U 1 1 60539187
P 5700 7250
F 0 "R80" H 5770 7296 50  0000 L CNN
F 1 "R" H 5770 7205 50  0000 L CNN
F 2 "" V 5630 7250 50  0001 C CNN
F 3 "~" H 5700 7250 50  0001 C CNN
	1    5700 7250
	1    0    0    -1  
$EndComp
Wire Wire Line
	5200 7550 5400 7550
Wire Wire Line
	5700 7550 5700 7400
Connection ~ 5200 7550
Wire Wire Line
	5400 7400 5400 7550
Connection ~ 5400 7550
Wire Wire Line
	5400 7550 5700 7550
$Comp
L Device:R_POT_TRIM R78
U 1 1 6055C8A9
P 6450 7300
F 0 "R78" H 6380 7346 50  0000 R CNN
F 1 "R_POT_TRIM" H 6380 7255 50  0000 R CNN
F 2 "" H 6450 7300 50  0001 C CNN
F 3 "~" H 6450 7300 50  0001 C CNN
	1    6450 7300
	1    0    0    -1  
$EndComp
Wire Wire Line
	6600 7300 6650 7300
Wire Wire Line
	6650 7300 6650 7000
Wire Wire Line
	6650 7000 5700 7000
Wire Wire Line
	5700 7000 5700 7100
Wire Wire Line
	6450 7150 6450 6950
Wire Wire Line
	6450 6950 5400 6950
Wire Wire Line
	5400 6950 5400 7100
Wire Wire Line
	1000 1200 1100 1200
Wire Wire Line
	1100 1200 1100 1300
Wire Wire Line
	1100 1300 1750 1300
Wire Wire Line
	1750 1300 1750 5750
Wire Wire Line
	5400 6950 5400 6500
Wire Wire Line
	5400 6500 1750 6500
Connection ~ 5400 6950
Text Notes 6350 7100 0    50   ~ 0
Focus
Wire Wire Line
	6450 7450 6450 7600
Wire Wire Line
	6450 7600 6700 7600
Wire Wire Line
	6700 7600 6700 6900
$Comp
L Device:R R63
U 1 1 605BF6E2
P 6700 6700
F 0 "R63" H 6770 6746 50  0000 L CNN
F 1 "R" H 6770 6655 50  0000 L CNN
F 2 "" V 6630 6700 50  0001 C CNN
F 3 "~" H 6700 6700 50  0001 C CNN
	1    6700 6700
	1    0    0    -1  
$EndComp
$Comp
L Device:C C55
U 1 1 605C2842
P 6350 6700
F 0 "C55" H 6465 6746 50  0000 L CNN
F 1 "C" H 6465 6655 50  0000 L CNN
F 2 "" H 6388 6550 50  0001 C CNN
F 3 "~" H 6350 6700 50  0001 C CNN
	1    6350 6700
	1    0    0    -1  
$EndComp
Wire Wire Line
	6350 6850 6350 6900
Wire Wire Line
	6350 6900 6700 6900
Connection ~ 6700 6900
Wire Wire Line
	6700 6900 6700 6850
$Comp
L Device:R_POT_TRIM R62
U 1 1 605D7259
P 6700 6000
F 0 "R62" H 6630 6046 50  0000 R CNN
F 1 "R_POT_TRIM" H 6630 5955 50  0000 R CNN
F 2 "" H 6700 6000 50  0001 C CNN
F 3 "~" H 6700 6000 50  0001 C CNN
	1    6700 6000
	1    0    0    -1  
$EndComp
Wire Wire Line
	6700 6150 6700 6550
Wire Wire Line
	6350 6550 6350 6450
Wire Wire Line
	6350 6450 7000 6450
Wire Wire Line
	7000 6450 7000 6000
Wire Wire Line
	7000 6000 6850 6000
Text Notes 6500 6200 0    50   ~ 0
black level
$Comp
L Device:R R61
U 1 1 60601FCA
P 6700 5500
F 0 "R61" H 6770 5546 50  0000 L CNN
F 1 "R" H 6770 5455 50  0000 L CNN
F 2 "" V 6630 5500 50  0001 C CNN
F 3 "~" H 6700 5500 50  0001 C CNN
	1    6700 5500
	1    0    0    -1  
$EndComp
Wire Wire Line
	6700 5650 6700 5850
Wire Wire Line
	3700 5450 3700 5550
Wire Wire Line
	3700 5550 3550 5550
Wire Wire Line
	2750 4950 5100 4950
Wire Wire Line
	6700 5000 6700 5350
Wire Wire Line
	3550 5550 3550 5000
Wire Wire Line
	3550 5000 5550 5000
$Comp
L Device:R R99
U 1 1 606C0CC8
P 5950 4800
F 0 "R99" H 6020 4846 50  0000 L CNN
F 1 "R" H 6020 4755 50  0000 L CNN
F 2 "" V 5880 4800 50  0001 C CNN
F 3 "~" H 5950 4800 50  0001 C CNN
	1    5950 4800
	1    0    0    -1  
$EndComp
Wire Wire Line
	5950 4650 5950 4600
Wire Wire Line
	5950 5100 5950 4950
Wire Wire Line
	7000 6000 7000 4500
Wire Wire Line
	7000 4500 1200 4500
Wire Wire Line
	1200 4500 1200 1900
Wire Wire Line
	1200 1900 1000 1900
Connection ~ 7000 6000
$Comp
L Device:R R73
U 1 1 606B2F2E
P 550 4450
F 0 "R73" H 620 4496 50  0000 L CNN
F 1 "R" H 620 4405 50  0000 L CNN
F 2 "" V 480 4450 50  0001 C CNN
F 3 "~" H 550 4450 50  0001 C CNN
	1    550  4450
	1    0    0    -1  
$EndComp
Wire Wire Line
	550  4300 550  1350
Wire Wire Line
	550  1350 1050 1350
Wire Wire Line
	1050 1350 1050 1300
Wire Wire Line
	1050 1300 1000 1300
Text HLabel 550  5650 2    50   Input ~ 0
from_R73_to_R24
Wire Wire Line
	550  4600 550  4650
$Comp
L Device:D Dpatch
U 1 1 60757626
P 750 4850
F 0 "Dpatch" V 796 4770 50  0000 R CNN
F 1 "BY127M" V 705 4770 50  0000 R CNN
F 2 "" H 750 4850 50  0001 C CNN
F 3 "~" H 750 4850 50  0001 C CNN
	1    750  4850
	0    -1   -1   0   
$EndComp
Wire Wire Line
	750  4700 750  4650
Wire Wire Line
	750  4650 550  4650
Connection ~ 550  4650
Wire Wire Line
	3550 5550 750  5550
Wire Wire Line
	750  5550 750  5000
Connection ~ 3550 5550
$Comp
L Device:R R75
U 1 1 6078969A
P 5550 5350
F 0 "R75" H 5620 5396 50  0000 L CNN
F 1 "R" H 5620 5305 50  0000 L CNN
F 2 "" V 5480 5350 50  0001 C CNN
F 3 "~" H 5550 5350 50  0001 C CNN
	1    5550 5350
	1    0    0    -1  
$EndComp
$Comp
L Device:R R72
U 1 1 607A2BFE
P 6300 4800
F 0 "R72" H 6370 4846 50  0000 L CNN
F 1 "R" H 6370 4755 50  0000 L CNN
F 2 "" V 6230 4800 50  0001 C CNN
F 3 "~" H 6300 4800 50  0001 C CNN
	1    6300 4800
	1    0    0    -1  
$EndComp
$Comp
L Device:R R76
U 1 1 607BC663
P 5550 5900
F 0 "R76" H 5620 5946 50  0000 L CNN
F 1 "R" H 5620 5855 50  0000 L CNN
F 2 "" V 5480 5900 50  0001 C CNN
F 3 "~" H 5550 5900 50  0001 C CNN
	1    5550 5900
	1    0    0    -1  
$EndComp
Wire Wire Line
	5550 5500 5550 5600
Wire Wire Line
	5550 5200 5550 5000
Connection ~ 5550 5000
Wire Wire Line
	5550 6050 5550 7000
Wire Wire Line
	5550 7000 4800 7000
Connection ~ 4800 7000
Wire Wire Line
	4800 7000 4800 6900
Wire Wire Line
	6300 4950 6300 5000
Connection ~ 6300 5000
Wire Wire Line
	6300 5000 6700 5000
$Comp
L Device:D CR52
U 1 1 608586FA
P 6300 4250
F 0 "CR52" V 6346 4170 50  0000 R CNN
F 1 "D" V 6255 4170 50  0000 R CNN
F 2 "" H 6300 4250 50  0001 C CNN
F 3 "~" H 6300 4250 50  0001 C CNN
	1    6300 4250
	0    -1   -1   0   
$EndComp
Wire Wire Line
	6300 4400 6300 4650
Text HLabel 1150 5750 0    50   Input ~ 0
from_J3_pin_4
Wire Wire Line
	1150 5750 1750 5750
Connection ~ 1750 5750
Wire Wire Line
	1750 5750 1750 6500
Wire Wire Line
	550  4650 550  5650
$Comp
L Device:Transformer_1P_SS T42
U 1 1 609F051C
P 8850 2700
F 0 "T42" H 8850 3081 50  0000 C CNN
F 1 "Transformer_1P_SS" H 8850 2990 50  0000 C CNN
F 2 "" H 8850 2700 50  0001 C CNN
F 3 "~" H 8850 2700 50  0001 C CNN
	1    8850 2700
	1    0    0    -1  
$EndComp
Wire Wire Line
	8300 1800 8300 2500
Wire Wire Line
	8300 2500 8450 2500
$Comp
L Device:R_POT_TRIM R69
U 1 1 60A126FE
P 8150 3300
F 0 "R69" H 8080 3346 50  0000 R CNN
F 1 "R_POT_TRIM" H 8080 3255 50  0000 R CNN
F 2 "" H 8150 3300 50  0001 C CNN
F 3 "~" H 8150 3300 50  0001 C CNN
	1    8150 3300
	1    0    0    -1  
$EndComp
Wire Wire Line
	8450 2900 8300 2900
Wire Wire Line
	8300 2900 8300 3300
Wire Wire Line
	8150 3150 9450 3150
Wire Wire Line
	9450 3150 9450 2850
Wire Wire Line
	9450 2700 9250 2700
Connection ~ 5100 4950
Wire Wire Line
	5100 4950 5450 4950
Wire Wire Line
	5100 4650 5100 3700
Wire Wire Line
	5100 3700 6750 3700
Wire Wire Line
	6750 3700 6750 3150
Wire Wire Line
	6750 3150 7550 3150
Wire Wire Line
	7550 3150 7550 2900
Wire Wire Line
	7550 2900 8300 2900
Connection ~ 8300 2900
$Comp
L Device:D CR55
U 1 1 60A68CFC
P 9850 2150
F 0 "CR55" V 9896 2070 50  0000 R CNN
F 1 "D" V 9805 2070 50  0000 R CNN
F 2 "" H 9850 2150 50  0001 C CNN
F 3 "~" H 9850 2150 50  0001 C CNN
	1    9850 2150
	0    -1   -1   0   
$EndComp
$Comp
L Device:CP C58
U 1 1 60A6A1A4
P 9850 2600
F 0 "C58" H 9968 2646 50  0000 L CNN
F 1 "4700 pF" H 9968 2555 50  0000 L CNN
F 2 "" H 9888 2450 50  0001 C CNN
F 3 "~" H 9850 2600 50  0001 C CNN
	1    9850 2600
	1    0    0    -1  
$EndComp
Wire Wire Line
	9850 2450 9850 2400
Wire Wire Line
	9850 2750 9850 2850
Wire Wire Line
	9850 2850 9450 2850
Connection ~ 9450 2850
Wire Wire Line
	9450 2850 9450 2700
Wire Wire Line
	9850 2000 9850 1950
Wire Wire Line
	9850 1950 9250 1950
Wire Wire Line
	9250 1950 9250 2500
NoConn ~ 9250 2900
Text Notes 8000 3150 0    50   ~ 0
hor. shift
$Comp
L Device:R_POT_TRIM SW1
U 1 1 60AE011B
P 10850 2600
F 0 "SW1" H 10780 2646 50  0000 R CNN
F 1 "R_POT_TRIM" H 10780 2555 50  0000 R CNN
F 2 "" H 10850 2600 50  0001 C CNN
F 3 "~" H 10850 2600 50  0001 C CNN
	1    10850 2600
	1    0    0    -1  
$EndComp
Wire Wire Line
	10850 2450 10850 2400
Wire Wire Line
	10850 2400 10300 2400
Connection ~ 9850 2400
Wire Wire Line
	9850 2400 9850 2300
Wire Wire Line
	9850 2850 10800 2850
Wire Wire Line
	10850 2850 10850 2750
Connection ~ 9850 2850
Wire Wire Line
	11000 2600 11050 2600
Wire Wire Line
	11050 2600 11050 3350
Wire Wire Line
	11050 6500 6950 6500
Wire Wire Line
	6950 6500 6950 6900
Wire Wire Line
	6950 6900 6700 6900
$Comp
L Device:R R70
U 1 1 60B3D8D5
P 10800 3150
F 0 "R70" H 10870 3196 50  0000 L CNN
F 1 "R" H 10870 3105 50  0000 L CNN
F 2 "" V 10730 3150 50  0001 C CNN
F 3 "~" H 10800 3150 50  0001 C CNN
	1    10800 3150
	1    0    0    -1  
$EndComp
Wire Wire Line
	10800 3000 10800 2850
Connection ~ 10800 2850
Wire Wire Line
	10800 2850 10850 2850
Wire Wire Line
	10800 3300 10800 3350
Wire Wire Line
	10800 3350 11050 3350
Connection ~ 11050 3350
Wire Wire Line
	11050 3350 11050 6500
Wire Wire Line
	10300 2400 10300 3550
Wire Wire Line
	10300 3550 8150 3550
Wire Wire Line
	8150 3550 8150 3450
Connection ~ 10300 2400
Wire Wire Line
	10300 2400 9850 2400
Wire Wire Line
	5400 2250 5400 2100
Wire Wire Line
	5400 2100 6150 2100
Connection ~ 4800 2100
$Comp
L Transistor_BJT:BC560 Q85
U 1 1 604E85C8
P 4700 4100
F 0 "Q85" H 4891 4146 50  0000 L CNN
F 1 "BC560C" H 4891 4055 50  0000 L CNN
F 2 "Package_TO_SOT_THT:TO-92_Inline" H 4900 4025 50  0001 L CIN
F 3 "https://www.onsemi.com/pub/Collateral/BC556BTA-D.pdf" H 4700 4100 50  0001 L CNN
	1    4700 4100
	1    0    0    -1  
$EndComp
Wire Wire Line
	4000 3650 4800 3650
Wire Wire Line
	4800 3650 4800 3900
Wire Wire Line
	4400 4100 4500 4100
Wire Wire Line
	4400 4100 4400 4600
Connection ~ 4400 4600
Wire Wire Line
	4400 4600 2750 4600
$Comp
L Device:R_POT_TRIM R93
U 1 1 60550115
P 7200 4000
F 0 "R93" H 7130 4046 50  0000 R CNN
F 1 "R_POT_TRIM" H 7130 3955 50  0000 R CNN
F 2 "" H 7200 4000 50  0001 C CNN
F 3 "~" H 7200 4000 50  0001 C CNN
	1    7200 4000
	1    0    0    -1  
$EndComp
Text Notes 7000 4250 0    50   ~ 0
vert. shift
Wire Wire Line
	4800 3650 7200 3650
Wire Wire Line
	7200 3650 7200 3850
Connection ~ 4800 3650
$Comp
L Device:R R94
U 1 1 60573D81
P 7500 4200
F 0 "R94" H 7570 4246 50  0000 L CNN
F 1 "R" H 7570 4155 50  0000 L CNN
F 2 "" V 7430 4200 50  0001 C CNN
F 3 "~" H 7500 4200 50  0001 C CNN
	1    7500 4200
	1    0    0    -1  
$EndComp
Connection ~ 3450 5650
Wire Wire Line
	1950 6050 1950 6200
Wire Wire Line
	1950 6200 2400 6200
Wire Wire Line
	2400 6200 2400 6050
$Comp
L Transistor_BJT:BC560 Q84
U 1 1 60605686
P 1150 6800
F 0 "Q84" H 1341 6846 50  0000 L CNN
F 1 "BC560C" H 1341 6755 50  0000 L CNN
F 2 "Package_TO_SOT_THT:TO-92_Inline" H 1350 6725 50  0001 L CIN
F 3 "https://www.onsemi.com/pub/Collateral/BC556BTA-D.pdf" H 1150 6800 50  0001 L CNN
	1    1150 6800
	1    0    0    -1  
$EndComp
Wire Wire Line
	1950 6200 1400 6200
Wire Wire Line
	750  6200 750  6800
Wire Wire Line
	750  6800 950  6800
Connection ~ 1950 6200
Wire Wire Line
	1250 6600 1250 4000
Wire Wire Line
	1250 4000 3250 4000
Wire Wire Line
	4800 4300 4800 4550
Wire Wire Line
	4800 4550 1600 4550
Wire Wire Line
	1600 4550 1600 7150
Wire Wire Line
	1600 7150 1250 7150
Wire Wire Line
	1250 7150 1250 7000
Wire Wire Line
	1150 4950 1950 4950
$Comp
L Device:C C84
U 1 1 60679A6E
P 1400 5950
F 0 "C84" H 1515 5996 50  0000 L CNN
F 1 "C" H 1515 5905 50  0000 L CNN
F 2 "" H 1438 5800 50  0001 C CNN
F 3 "~" H 1400 5950 50  0001 C CNN
	1    1400 5950
	1    0    0    -1  
$EndComp
Wire Wire Line
	1400 6100 1400 6200
Connection ~ 1400 6200
Wire Wire Line
	1400 6200 750  6200
Wire Wire Line
	1400 5800 1400 4600
Wire Wire Line
	1400 4600 2750 4600
Connection ~ 2750 4600
$Comp
L Device:C C92
U 1 1 606CAFB6
P 1500 1750
F 0 "C92" H 1615 1796 50  0000 L CNN
F 1 "C" H 1615 1705 50  0000 L CNN
F 2 "" H 1538 1600 50  0001 C CNN
F 3 "~" H 1500 1750 50  0001 C CNN
	1    1500 1750
	1    0    0    -1  
$EndComp
Wire Wire Line
	1000 1500 1500 1500
Wire Wire Line
	1500 1500 1500 1600
$Comp
L Device:R R109
U 1 1 606F4BAF
P 3500 1900
F 0 "R109" H 3570 1946 50  0000 L CNN
F 1 "R" H 3570 1855 50  0000 L CNN
F 2 "" V 3430 1900 50  0001 C CNN
F 3 "~" H 3500 1900 50  0001 C CNN
	1    3500 1900
	1    0    0    -1  
$EndComp
Wire Wire Line
	1500 1900 1500 2000
Wire Wire Line
	3500 2050 3500 2100
Connection ~ 3500 2100
Wire Wire Line
	3500 2100 4300 2100
Wire Wire Line
	3500 1750 2750 1750
Wire Wire Line
	2750 1750 2750 1900
Wire Wire Line
	2750 1900 1650 1900
Wire Wire Line
	1650 1900 1650 2000
Wire Wire Line
	1650 2000 1500 2000
Wire Wire Line
	3200 6600 3200 6550
$Comp
L Device:R R88
U 1 1 607CE19E
P 3600 7400
F 0 "R88" H 3670 7446 50  0000 L CNN
F 1 "R" H 3670 7355 50  0000 L CNN
F 2 "" V 3530 7400 50  0001 C CNN
F 3 "~" H 3600 7400 50  0001 C CNN
	1    3600 7400
	1    0    0    -1  
$EndComp
$Comp
L Device:R R87
U 1 1 607FAF7E
P 3900 7400
F 0 "R87" H 3970 7446 50  0000 L CNN
F 1 "R" H 3970 7355 50  0000 L CNN
F 2 "" V 3830 7400 50  0001 C CNN
F 3 "~" H 3900 7400 50  0001 C CNN
	1    3900 7400
	1    0    0    -1  
$EndComp
$Comp
L Device:R R83
U 1 1 60828456
P 2800 7450
F 0 "R83" H 2870 7496 50  0000 L CNN
F 1 "R" H 2870 7405 50  0000 L CNN
F 2 "" V 2730 7450 50  0001 C CNN
F 3 "~" H 2800 7450 50  0001 C CNN
	1    2800 7450
	1    0    0    -1  
$EndComp
$Comp
L Device:D CR81
U 1 1 6085673E
P 4250 7400
F 0 "CR81" V 4296 7320 50  0000 R CNN
F 1 "D" V 4205 7320 50  0000 R CNN
F 2 "" H 4250 7400 50  0001 C CNN
F 3 "~" H 4250 7400 50  0001 C CNN
	1    4250 7400
	0    -1   -1   0   
$EndComp
$Comp
L Device:R R86
U 1 1 608B17A3
P 3350 7450
F 0 "R86" H 3420 7496 50  0000 L CNN
F 1 "R" H 3420 7405 50  0000 L CNN
F 2 "" V 3280 7450 50  0001 C CNN
F 3 "~" H 3350 7450 50  0001 C CNN
	1    3350 7450
	1    0    0    -1  
$EndComp
Wire Wire Line
	4250 7200 4250 7250
$Comp
L Device:R R82
U 1 1 6093D567
P 2500 7450
F 0 "R82" H 2570 7496 50  0000 L CNN
F 1 "R" H 2570 7405 50  0000 L CNN
F 2 "" V 2430 7450 50  0001 C CNN
F 3 "~" H 2500 7450 50  0001 C CNN
	1    2500 7450
	1    0    0    -1  
$EndComp
Wire Wire Line
	2500 7300 2500 7250
Wire Wire Line
	2500 7250 2800 7250
Wire Wire Line
	2800 7250 2800 7300
Wire Wire Line
	2500 7600 2500 7750
Wire Wire Line
	6900 7750 6900 4400
Wire Wire Line
	6900 4400 7200 4400
Wire Wire Line
	7200 4400 7200 4150
$Comp
L Device:R_POT_TRIM R84
U 1 1 609CEDE5
P 1850 7400
F 0 "R84" H 1780 7446 50  0000 R CNN
F 1 "R_POT_TRIM" H 1780 7355 50  0000 R CNN
F 2 "" H 1850 7400 50  0001 C CNN
F 3 "~" H 1850 7400 50  0001 C CNN
	1    1850 7400
	1    0    0    -1  
$EndComp
Text Notes 1650 7650 0    50   ~ 0
vert. freq.
Wire Wire Line
	2800 7600 2800 7650
Wire Wire Line
	2800 7650 1850 7650
Wire Wire Line
	1850 7650 1850 7550
Wire Wire Line
	2000 7400 2050 7400
Wire Wire Line
	2200 7150 2050 7150
Connection ~ 2200 7150
Connection ~ 2050 7150
Wire Wire Line
	2050 7150 1850 7150
Wire Wire Line
	2050 7150 2050 7400
Wire Wire Line
	1850 7150 1850 7250
Wire Wire Line
	1800 6800 1900 6800
Wire Wire Line
	2450 6800 2450 6600
Wire Wire Line
	2450 6600 2200 6600
Wire Wire Line
	3900 7250 3900 7200
Wire Wire Line
	3900 7200 4250 7200
Wire Wire Line
	3900 7600 3900 7550
Wire Wire Line
	3600 7550 3600 7600
Wire Wire Line
	3600 7600 3900 7600
Wire Wire Line
	3350 7250 3350 7300
Wire Wire Line
	3200 7000 3200 7050
Wire Wire Line
	3200 7250 3350 7250
Wire Wire Line
	3350 7600 3350 7650
Wire Wire Line
	3350 7650 3500 7650
Wire Wire Line
	3500 7650 3500 7200
Wire Wire Line
	3500 7200 3900 7200
Connection ~ 3900 7200
Text HLabel 4350 7700 2    50   Input ~ 0
from_CR81_cathode
Wire Wire Line
	4250 7550 4250 7700
Wire Wire Line
	4250 7700 4350 7700
Wire Wire Line
	3750 6950 3750 7750
Wire Wire Line
	3750 7750 6900 7750
Connection ~ 3750 6400
Wire Wire Line
	3750 6400 4900 6400
Wire Wire Line
	5550 5000 6300 5000
$Comp
L Device:CP C47
U 1 1 60E132F1
P 8350 4200
F 0 "C47" H 8468 4246 50  0000 L CNN
F 1 "CP" H 8468 4155 50  0000 L CNN
F 2 "" H 8388 4050 50  0001 C CNN
F 3 "~" H 8350 4200 50  0001 C CNN
	1    8350 4200
	1    0    0    -1  
$EndComp
$Comp
L Device:CP C90
U 1 1 60E1426F
P 8800 4200
F 0 "C90" H 8918 4246 50  0000 L CNN
F 1 "CP" H 8918 4155 50  0000 L CNN
F 2 "" H 8838 4050 50  0001 C CNN
F 3 "~" H 8800 4200 50  0001 C CNN
	1    8800 4200
	1    0    0    -1  
$EndComp
Wire Wire Line
	8800 4350 8800 4400
Wire Wire Line
	8800 4400 8350 4400
Wire Wire Line
	8350 4400 8350 4350
Wire Wire Line
	8000 4400 8000 2500
Wire Wire Line
	8000 2500 7450 2500
Connection ~ 8350 4400
Connection ~ 7450 2500
Connection ~ 6150 2100
Wire Wire Line
	8800 4050 8800 3200
Wire Wire Line
	6150 2100 8800 2100
$Comp
L Transistor_BJT:BC548 Q46
U 1 1 60EEE09E
P 9500 3850
F 0 "Q46" H 9691 3896 50  0000 L CNN
F 1 "BC548" H 9691 3805 50  0000 L CNN
F 2 "Package_TO_SOT_THT:TO-92_Inline" H 9700 3775 50  0001 L CIN
F 3 "https://www.onsemi.com/pub/Collateral/BC550-D.pdf" H 9500 3850 50  0001 L CNN
	1    9500 3850
	1    0    0    -1  
$EndComp
$Comp
L Device:C C48
U 1 1 60EEF06D
P 9600 4400
F 0 "C48" H 9715 4446 50  0000 L CNN
F 1 "C" H 9715 4355 50  0000 L CNN
F 2 "" H 9638 4250 50  0001 C CNN
F 3 "~" H 9600 4400 50  0001 C CNN
	1    9600 4400
	1    0    0    -1  
$EndComp
Wire Wire Line
	9600 4250 9600 4050
Wire Wire Line
	9600 4550 9600 4600
Connection ~ 8800 4400
Connection ~ 9600 4250
$Comp
L Device:R R57
U 1 1 60FCD8BE
P 8350 3800
F 0 "R57" H 8420 3846 50  0000 L CNN
F 1 "R" H 8420 3755 50  0000 L CNN
F 2 "" V 8280 3800 50  0001 C CNN
F 3 "~" H 8350 3800 50  0001 C CNN
	1    8350 3800
	1    0    0    -1  
$EndComp
Wire Wire Line
	8350 3950 8350 4000
Wire Wire Line
	8350 3650 8350 3600
Wire Wire Line
	8350 3600 9000 3600
Wire Wire Line
	9600 3600 9600 3650
$Comp
L Device:D CR47
U 1 1 6103E8B2
P 8150 4200
F 0 "CR47" V 8104 4280 50  0000 L CNN
F 1 "D" V 8195 4280 50  0000 L CNN
F 2 "" H 8150 4200 50  0001 C CNN
F 3 "~" H 8150 4200 50  0001 C CNN
	1    8150 4200
	0    1    1    0   
$EndComp
Wire Wire Line
	8350 4000 8150 4000
Wire Wire Line
	8150 4000 8150 4050
Connection ~ 8350 4000
Wire Wire Line
	8350 4000 8350 4050
$Comp
L Device:D CR48
U 1 1 61078099
P 8150 4650
F 0 "CR48" V 8104 4730 50  0000 L CNN
F 1 "D" V 8195 4730 50  0000 L CNN
F 2 "" H 8150 4650 50  0001 C CNN
F 3 "~" H 8150 4650 50  0001 C CNN
	1    8150 4650
	0    1    1    0   
$EndComp
Wire Wire Line
	8150 4800 8150 4850
$Comp
L Transistor_BJT:BC558 Q45
U 1 1 6115DFBD
P 8800 5850
F 0 "Q45" H 8991 5896 50  0000 L CNN
F 1 "BC558" H 8991 5805 50  0000 L CNN
F 2 "Package_TO_SOT_THT:TO-92_Inline" H 9000 5775 50  0001 L CIN
F 3 "https://www.onsemi.com/pub/Collateral/BC556BTA-D.pdf" H 8800 5850 50  0001 L CNN
	1    8800 5850
	1    0    0    -1  
$EndComp
$Comp
L Device:R R43
U 1 1 611607E0
P 8900 5400
F 0 "R43" H 8970 5446 50  0000 L CNN
F 1 "R" H 8970 5355 50  0000 L CNN
F 2 "" V 8830 5400 50  0001 C CNN
F 3 "~" H 8900 5400 50  0001 C CNN
	1    8900 5400
	1    0    0    -1  
$EndComp
Wire Wire Line
	8900 5550 8900 5650
$Comp
L Device:C C45
U 1 1 6119B549
P 8500 6100
F 0 "C45" H 8615 6146 50  0000 L CNN
F 1 "C" H 8615 6055 50  0000 L CNN
F 2 "" H 8538 5950 50  0001 C CNN
F 3 "~" H 8500 6100 50  0001 C CNN
	1    8500 6100
	1    0    0    -1  
$EndComp
Wire Wire Line
	8500 5950 8500 5850
Wire Wire Line
	8500 5850 8600 5850
Wire Wire Line
	8500 6250 8500 6300
Wire Wire Line
	8500 6300 8900 6300
Wire Wire Line
	8900 6300 8900 6050
Wire Wire Line
	8900 6300 9600 6300
Connection ~ 8900 6300
$Comp
L Device:Q_NPN_EBC Q44
U 1 1 6124E3A1
P 7850 5550
F 0 "Q44" H 8041 5596 50  0000 L CNN
F 1 "MPSW01" H 8041 5505 50  0000 L CNN
F 2 "" H 8050 5650 50  0001 C CNN
F 3 "~" H 7850 5550 50  0001 C CNN
	1    7850 5550
	1    0    0    -1  
$EndComp
Wire Wire Line
	7500 4350 7500 5750
Wire Wire Line
	7500 5750 6400 5750
Wire Wire Line
	7500 4050 7500 4000
Wire Wire Line
	7350 4000 7500 4000
$Comp
L Device:D CR46
U 1 1 6130169E
P 7600 6100
F 0 "CR46" V 7646 6020 50  0000 R CNN
F 1 "D" V 7555 6020 50  0000 R CNN
F 2 "" H 7600 6100 50  0001 C CNN
F 3 "~" H 7600 6100 50  0001 C CNN
	1    7600 6100
	0    -1   -1   0   
$EndComp
Wire Wire Line
	7950 5950 7950 5900
Wire Wire Line
	7950 6250 7950 6300
Wire Wire Line
	7950 6300 8150 6300
Wire Wire Line
	8150 6300 8150 5850
Wire Wire Line
	8150 5850 8500 5850
Connection ~ 8500 5850
$Comp
L Device:R Rpatch
U 1 1 613798EC
P 7950 6100
F 0 "Rpatch" H 8020 6146 50  0000 L CNN
F 1 "R" H 8020 6055 50  0000 L CNN
F 2 "" V 7880 6100 50  0001 C CNN
F 3 "~" H 7950 6100 50  0001 C CNN
	1    7950 6100
	1    0    0    -1  
$EndComp
Wire Wire Line
	7600 5950 7600 5900
Wire Wire Line
	7600 5900 7950 5900
Connection ~ 7950 5900
Wire Wire Line
	7950 5900 7950 5750
Wire Wire Line
	7600 6250 7600 6300
Wire Wire Line
	7600 6300 7950 6300
Connection ~ 7950 6300
$Comp
L Device:Q_NPN_CBE Q41
U 1 1 613F5367
P 7500 5000
F 0 "Q41" H 7691 5046 50  0000 L CNN
F 1 "BC490B" H 7691 4955 50  0000 L CNN
F 2 "" H 7700 5100 50  0001 C CNN
F 3 "~" H 7500 5000 50  0001 C CNN
	1    7500 5000
	1    0    0    -1  
$EndComp
Wire Wire Line
	7600 5200 7600 5250
Wire Wire Line
	7600 5550 7650 5550
$Comp
L Device:R R42
U 1 1 61434AF7
P 7300 5250
F 0 "R42" H 7370 5296 50  0000 L CNN
F 1 "R" H 7370 5205 50  0000 L CNN
F 2 "" V 7230 5250 50  0001 C CNN
F 3 "~" H 7300 5250 50  0001 C CNN
	1    7300 5250
	1    0    0    -1  
$EndComp
Wire Wire Line
	7300 5000 7300 5100
$Comp
L Device:R R44
U 1 1 61473136
P 8600 5400
F 0 "R44" H 8670 5446 50  0000 L CNN
F 1 "R" H 8670 5355 50  0000 L CNN
F 2 "" V 8530 5400 50  0001 C CNN
F 3 "~" H 8600 5400 50  0001 C CNN
	1    8600 5400
	1    0    0    -1  
$EndComp
$Comp
L Device:Q_NPN_CBE Q43
U 1 1 604E8915
P 9150 5150
F 0 "Q43" H 9341 5196 50  0000 L CNN
F 1 "BC489B" H 9341 5105 50  0000 L CNN
F 2 "" H 9350 5250 50  0001 C CNN
F 3 "~" H 9150 5150 50  0001 C CNN
	1    9150 5150
	1    0    0    -1  
$EndComp
Wire Wire Line
	9200 4250 9600 4250
$Comp
L Device:R R53
U 1 1 60F5D980
P 9200 4100
F 0 "R53" H 9270 4146 50  0000 L CNN
F 1 "R" H 9270 4055 50  0000 L CNN
F 2 "" V 9130 4100 50  0001 C CNN
F 3 "~" H 9200 4100 50  0001 C CNN
	1    9200 4100
	1    0    0    -1  
$EndComp
Wire Wire Line
	9200 3950 9200 3900
Wire Wire Line
	9200 3850 9300 3850
Wire Wire Line
	8800 4400 9400 4400
Wire Wire Line
	9400 4400 9400 4600
Wire Wire Line
	9400 4600 9600 4600
Connection ~ 9600 4600
Wire Wire Line
	9600 4600 9600 6300
Wire Wire Line
	8000 4400 8350 4400
Wire Wire Line
	8150 4500 8150 4450
Wire Wire Line
	8150 4850 8450 4850
Connection ~ 9200 4250
Wire Wire Line
	9200 4500 8450 4500
Wire Wire Line
	8450 4500 8450 4850
Wire Wire Line
	9200 4500 9200 4250
Wire Wire Line
	8900 5250 8900 5150
Wire Wire Line
	8900 5150 8950 5150
Wire Wire Line
	7600 4750 7800 4750
Wire Wire Line
	7800 4750 7800 5150
Wire Wire Line
	9250 5450 9250 5350
Wire Wire Line
	7600 4750 7600 4800
$Comp
L Device:R R41
U 1 1 60851983
P 9250 4700
F 0 "R41" H 9320 4746 50  0000 L CNN
F 1 "R" H 9320 4655 50  0000 L CNN
F 2 "" V 9180 4700 50  0001 C CNN
F 3 "~" H 9250 4700 50  0001 C CNN
	1    9250 4700
	1    0    0    -1  
$EndComp
Wire Wire Line
	9250 4850 9250 4950
Wire Wire Line
	8900 5150 8600 5150
Connection ~ 8900 5150
$Comp
L Device:C C43
U 1 1 608D316D
P 9400 5650
F 0 "C43" H 9515 5696 50  0000 L CNN
F 1 "C" H 9515 5605 50  0000 L CNN
F 2 "" H 9438 5500 50  0001 C CNN
F 3 "~" H 9400 5650 50  0001 C CNN
	1    9400 5650
	1    0    0    -1  
$EndComp
$Comp
L Device:D CR42
U 1 1 608D43F0
P 9850 5650
F 0 "CR42" V 9896 5570 50  0000 R CNN
F 1 "D" V 9805 5570 50  0000 R CNN
F 2 "" H 9850 5650 50  0001 C CNN
F 3 "~" H 9850 5650 50  0001 C CNN
	1    9850 5650
	0    -1   -1   0   
$EndComp
Wire Wire Line
	9850 5500 9850 5450
Wire Wire Line
	9850 5450 9400 5450
Wire Wire Line
	9400 5500 9400 5450
Connection ~ 9400 5450
Wire Wire Line
	9400 5450 9250 5450
$Comp
L Device:D CR43
U 1 1 60955EE0
P 9850 6100
F 0 "CR43" V 9896 6020 50  0000 R CNN
F 1 "D" V 9805 6020 50  0000 R CNN
F 2 "" H 9850 6100 50  0001 C CNN
F 3 "~" H 9850 6100 50  0001 C CNN
	1    9850 6100
	0    -1   -1   0   
$EndComp
Wire Wire Line
	9850 5950 9850 5900
Wire Wire Line
	9850 6250 9850 6350
Wire Wire Line
	9850 6350 7600 6350
Wire Wire Line
	7600 6350 7600 6300
Connection ~ 7600 6300
Wire Wire Line
	9400 5800 9400 5900
Wire Wire Line
	9400 5900 9850 5900
Connection ~ 9850 5900
Wire Wire Line
	9850 5900 9850 5800
$Comp
L Device:D CR41
U 1 1 60A1CA40
P 10250 6100
F 0 "CR41" V 10296 6020 50  0000 R CNN
F 1 "D" V 10205 6020 50  0000 R CNN
F 2 "" H 10250 6100 50  0001 C CNN
F 3 "~" H 10250 6100 50  0001 C CNN
	1    10250 6100
	0    -1   -1   0   
$EndComp
Wire Wire Line
	9850 5900 10250 5900
Wire Wire Line
	10250 5900 10250 5950
Wire Wire Line
	10250 6250 10250 6400
Wire Wire Line
	10250 6400 7300 6400
Wire Wire Line
	7300 6400 7300 5550
$Comp
L Device:R R54
U 1 1 60AA3D64
P 7950 5150
F 0 "R54" H 8020 5196 50  0000 L CNN
F 1 "R" H 8020 5105 50  0000 L CNN
F 2 "" V 7880 5150 50  0001 C CNN
F 3 "~" H 7950 5150 50  0001 C CNN
	1    7950 5150
	1    0    0    -1  
$EndComp
Wire Wire Line
	7950 5350 7950 5300
$Comp
L Device:R R49
U 1 1 60AE87DE
P 8400 5150
F 0 "R49" H 8470 5196 50  0000 L CNN
F 1 "R" H 8470 5105 50  0000 L CNN
F 2 "" V 8330 5150 50  0001 C CNN
F 3 "~" H 8400 5150 50  0001 C CNN
	1    8400 5150
	1    0    0    -1  
$EndComp
$Comp
L Device:D CR44
U 1 1 60B2D72A
P 8600 4850
F 0 "CR44" V 8646 4770 50  0000 R CNN
F 1 "D" V 8555 4770 50  0000 R CNN
F 2 "" H 8600 4850 50  0001 C CNN
F 3 "~" H 8600 4850 50  0001 C CNN
	1    8600 4850
	0    -1   -1   0   
$EndComp
Wire Wire Line
	8400 5000 8600 5000
$Comp
L Device:R R48
U 1 1 60B72846
P 7100 5250
F 0 "R48" H 7170 5296 50  0000 L CNN
F 1 "R" H 7170 5205 50  0000 L CNN
F 2 "" V 7030 5250 50  0001 C CNN
F 3 "~" H 7100 5250 50  0001 C CNN
	1    7100 5250
	1    0    0    -1  
$EndComp
Connection ~ 7300 5550
Wire Wire Line
	7300 5550 7300 5400
Wire Wire Line
	7100 5400 7100 5550
Wire Wire Line
	7100 5550 7300 5550
Wire Wire Line
	7100 5100 7100 4950
Wire Wire Line
	7100 4950 8400 4950
Wire Wire Line
	8400 4950 8400 5000
Connection ~ 8400 5000
$Comp
L Device:R R47
U 1 1 60C43632
P 9950 4900
F 0 "R47" H 10020 4946 50  0000 L CNN
F 1 "R" H 10020 4855 50  0000 L CNN
F 2 "" V 9880 4900 50  0001 C CNN
F 3 "~" H 9950 4900 50  0001 C CNN
	1    9950 4900
	1    0    0    -1  
$EndComp
Wire Wire Line
	9950 4700 9950 4750
Wire Wire Line
	8600 4700 9500 4700
$Comp
L Device:R R46
U 1 1 60CD0894
P 10250 4900
F 0 "R46" H 10320 4946 50  0000 L CNN
F 1 "R" H 10320 4855 50  0000 L CNN
F 2 "" V 10180 4900 50  0001 C CNN
F 3 "~" H 10250 4900 50  0001 C CNN
	1    10250 4900
	1    0    0    -1  
$EndComp
Wire Wire Line
	9950 4700 10250 4700
Wire Wire Line
	10250 4700 10250 4750
Connection ~ 9950 4700
Wire Wire Line
	10250 6400 10350 6400
Wire Wire Line
	10350 6400 10350 5150
Wire Wire Line
	10350 5150 10250 5150
Wire Wire Line
	10250 5150 10250 5050
Connection ~ 10250 6400
$Comp
L Device:C C44
U 1 1 60D5F1A2
P 9950 5300
F 0 "C44" H 10065 5346 50  0000 L CNN
F 1 "C" H 10065 5255 50  0000 L CNN
F 2 "" H 9988 5150 50  0001 C CNN
F 3 "~" H 9950 5300 50  0001 C CNN
	1    9950 5300
	1    0    0    -1  
$EndComp
Wire Wire Line
	9950 5150 9950 5050
Wire Wire Line
	9950 5450 9950 6350
Wire Wire Line
	9950 6350 9850 6350
Connection ~ 9850 6350
$Comp
L Device:D CR?
U 1 1 60DEF247
P 7950 4750
F 0 "CR?" V 7904 4830 50  0000 L CNN
F 1 "D" V 7995 4830 50  0000 L CNN
F 2 "" H 7950 4750 50  0001 C CNN
F 3 "~" H 7950 4750 50  0001 C CNN
	1    7950 4750
	0    1    1    0   
$EndComp
Wire Wire Line
	7950 4600 7950 4550
Wire Wire Line
	7950 4550 7850 4550
Wire Wire Line
	7850 4550 7850 5250
Wire Wire Line
	7850 5250 7600 5250
Connection ~ 7600 5250
Wire Wire Line
	7600 5250 7600 5550
Connection ~ 7950 5300
Wire Wire Line
	7950 5000 7950 4900
Wire Wire Line
	7950 5300 8400 5300
$Comp
L Device:R R102
U 1 1 60ECC39E
P 9250 3350
F 0 "R102" H 9320 3396 50  0000 L CNN
F 1 "R" H 9320 3305 50  0000 L CNN
F 2 "" V 9180 3350 50  0001 C CNN
F 3 "~" H 9250 3350 50  0001 C CNN
	1    9250 3350
	1    0    0    -1  
$EndComp
Wire Wire Line
	9250 3200 8800 3200
Connection ~ 8800 3200
Wire Wire Line
	8800 3200 8800 2100
Wire Wire Line
	9250 3500 9250 4550
Wire Wire Line
	8600 5250 8600 5150
Connection ~ 8600 5150
Wire Wire Line
	8600 5150 7800 5150
Wire Wire Line
	8600 5550 8600 5600
Connection ~ 9400 5900
Wire Wire Line
	9300 5900 9400 5900
Wire Wire Line
	8600 5600 9300 5600
Wire Wire Line
	9300 5600 9300 5900
$Comp
L Device:C C65
U 1 1 60554D4A
P 5150 1100
F 0 "C65" H 5265 1146 50  0000 L CNN
F 1 "330" H 5265 1055 50  0000 L CNN
F 2 "" H 5188 950 50  0001 C CNN
F 3 "~" H 5150 1100 50  0001 C CNN
	1    5150 1100
	1    0    0    -1  
$EndComp
Wire Wire Line
	4850 1300 5150 1300
Wire Wire Line
	5150 1250 5150 1300
Connection ~ 5150 1300
Wire Wire Line
	4850 900  5150 900 
Wire Wire Line
	5150 950  5150 900 
Connection ~ 5150 900 
Wire Wire Line
	5150 900  5150 650 
Wire Wire Line
	5150 650  1400 650 
Wire Wire Line
	1400 650  1400 1700
Wire Wire Line
	1400 1700 1000 1700
Wire Wire Line
	6400 5650 6400 5750
Wire Wire Line
	4100 5450 4100 5600
Connection ~ 5550 5600
Wire Wire Line
	5550 5600 5550 5750
Wire Wire Line
	5200 5450 5200 7550
Wire Wire Line
	4100 5600 5350 5600
Wire Wire Line
	5150 1300 5250 1300
Wire Wire Line
	5350 5600 5350 3500
Wire Wire Line
	5350 3500 5250 3500
Wire Wire Line
	5250 3500 5250 1300
Connection ~ 5350 5600
Wire Wire Line
	5350 5600 5550 5600
$Comp
L Device:D CR45
U 1 1 605F2A8C
P 7700 3700
F 0 "CR45" V 7654 3780 50  0000 L CNN
F 1 "D" V 7745 3780 50  0000 L CNN
F 2 "" H 7700 3700 50  0001 C CNN
F 3 "~" H 7700 3700 50  0001 C CNN
	1    7700 3700
	0    1    1    0   
$EndComp
Wire Wire Line
	7700 3550 7700 2300
Wire Wire Line
	7700 2300 7500 2300
Wire Wire Line
	7500 2300 7500 1400
Connection ~ 7500 1400
Wire Wire Line
	7500 1400 7350 1400
Wire Wire Line
	7700 3850 7700 4000
Wire Wire Line
	7700 4000 7850 4000
Wire Wire Line
	7850 4000 7850 4550
Connection ~ 7850 4550
$Comp
L Device:C C54
U 1 1 60697FF6
P 4600 1600
F 0 "C54" H 4715 1646 50  0000 L CNN
F 1 "C" H 4715 1555 50  0000 L CNN
F 2 "" H 4638 1450 50  0001 C CNN
F 3 "~" H 4600 1600 50  0001 C CNN
	1    4600 1600
	1    0    0    -1  
$EndComp
Wire Wire Line
	4600 1450 4600 1400
Connection ~ 4600 1400
Wire Wire Line
	4600 5050 4600 5100
Connection ~ 4600 5100
Wire Wire Line
	4600 5100 4800 5100
Wire Wire Line
	4100 5100 4600 5100
Wire Wire Line
	4600 1750 4600 1950
Wire Wire Line
	2300 5100 3700 5100
$Comp
L Device:R R66
U 1 1 60930D85
P 4150 1650
F 0 "R66" H 4220 1696 50  0000 L CNN
F 1 "R" H 4220 1605 50  0000 L CNN
F 2 "" V 4080 1650 50  0001 C CNN
F 3 "~" H 4150 1650 50  0001 C CNN
	1    4150 1650
	1    0    0    -1  
$EndComp
$Comp
L Device:D CR54
U 1 1 60984F3A
P 4350 1950
F 0 "CR54" H 4350 2167 50  0000 C CNN
F 1 "D" H 4350 2076 50  0000 C CNN
F 2 "" H 4350 1950 50  0001 C CNN
F 3 "~" H 4350 1950 50  0001 C CNN
	1    4350 1950
	1    0    0    -1  
$EndComp
Wire Wire Line
	4500 1950 4600 1950
Connection ~ 4600 1950
Wire Wire Line
	4600 1950 4600 4750
Wire Wire Line
	4150 1800 4150 1950
Wire Wire Line
	4150 1950 4200 1950
Wire Wire Line
	4150 1500 4150 1400
Connection ~ 4150 1400
Wire Wire Line
	4150 1400 3950 1400
Wire Wire Line
	4150 1400 4600 1400
Text GLabel 3800 1550 0    50   Input ~ 0
to_R28_CR24_CR25
Wire Wire Line
	3800 1950 4150 1950
Connection ~ 4150 1950
$Comp
L Device:D CR87
U 1 1 60BDE729
P 4950 3350
F 0 "CR87" V 4904 3430 50  0000 L CNN
F 1 "D" V 4995 3430 50  0000 L CNN
F 2 "" H 4950 3350 50  0001 C CNN
F 3 "~" H 4950 3350 50  0001 C CNN
	1    4950 3350
	0    1    1    0   
$EndComp
Wire Wire Line
	4950 3200 4950 3100
Wire Wire Line
	4950 3500 4950 3600
Connection ~ 4950 3600
Wire Wire Line
	4950 3600 5650 3600
$Comp
L Device:D CR88
U 1 1 60C8C938
P 3800 2400
F 0 "CR88" V 3754 2480 50  0000 L CNN
F 1 "D" V 3845 2480 50  0000 L CNN
F 2 "" H 3800 2400 50  0001 C CNN
F 3 "~" H 3800 2400 50  0001 C CNN
	1    3800 2400
	0    1    1    0   
$EndComp
Wire Wire Line
	3800 2250 3800 1950
$Comp
L Device:R R111
U 1 1 60CE611D
P 3800 5900
F 0 "R111" H 3870 5946 50  0000 L CNN
F 1 "R" H 3870 5855 50  0000 L CNN
F 2 "" V 3730 5900 50  0001 C CNN
F 3 "~" H 3800 5900 50  0001 C CNN
	1    3800 5900
	1    0    0    -1  
$EndComp
Wire Wire Line
	3800 6050 3800 6250
Wire Wire Line
	3800 6250 4050 6250
Wire Wire Line
	4050 6250 4050 7600
Wire Wire Line
	4050 7600 3900 7600
Connection ~ 3900 7600
$Comp
L Device:R R110
U 1 1 60D98C57
P 4900 2750
F 0 "R110" H 4970 2796 50  0000 L CNN
F 1 "R" H 4970 2705 50  0000 L CNN
F 2 "" V 4830 2750 50  0001 C CNN
F 3 "~" H 4900 2750 50  0001 C CNN
	1    4900 2750
	1    0    0    -1  
$EndComp
Wire Wire Line
	4950 3100 5350 3100
Connection ~ 5350 3100
Wire Wire Line
	5350 3100 5350 3300
Wire Wire Line
	5350 2500 5350 3100
Wire Wire Line
	3800 2550 3800 3000
$Comp
L Device:C C8?
U 1 1 60EA8F98
P 4900 2350
F 0 "C8?" H 5015 2396 50  0000 L CNN
F 1 "C" H 5015 2305 50  0000 L CNN
F 2 "" H 4938 2200 50  0001 C CNN
F 3 "~" H 4900 2350 50  0001 C CNN
	1    4900 2350
	1    0    0    -1  
$EndComp
Wire Wire Line
	4900 2500 4900 2600
Wire Wire Line
	4900 2900 4900 3000
Wire Wire Line
	4900 3000 3800 3000
Connection ~ 3800 3000
Wire Wire Line
	3800 3000 3800 5750
Wire Wire Line
	4950 2100 4950 2250
Wire Wire Line
	4950 2250 5400 2250
Wire Wire Line
	4900 2200 4900 2100
Connection ~ 4900 2100
Wire Wire Line
	4900 2100 4950 2100
Wire Wire Line
	4800 2100 4900 2100
Text GLabel 1300 1000 2    50   Input ~ 0
J3_pin_2
$Comp
L Connector_Generic:Conn_01x10 J97
U 1 1 605D6030
P 10150 1250
F 0 "J97" H 10230 1242 50  0000 L CNN
F 1 "T41" H 10230 1151 50  0000 L CNN
F 2 "" H 10150 1250 50  0001 C CNN
F 3 "~" H 10150 1250 50  0001 C CNN
	1    10150 1250
	1    0    0    -1  
$EndComp
Wire Notes Line
	10100 1850 10100 700 
Wire Notes Line
	10100 700  10500 700 
Wire Notes Line
	10500 700  10500 1850
Wire Notes Line
	10500 1850 10100 1850
Text Notes 10100 550  0    50   ~ 0
T41 - eht
Text Notes 10100 650  0    50   ~ 0
(unknown config)
Wire Wire Line
	9950 1350 9650 1350
Wire Wire Line
	9650 1650 9950 1650
Wire Wire Line
	9950 1750 9650 1750
Text Label 9700 850  0    50   ~ 0
FB
Text Label 9700 1050 0    50   ~ 0
EM
Text Label 9700 1150 0    50   ~ 0
C
Text Label 9700 1250 0    50   ~ 0
HV
Text Label 9700 1450 0    50   ~ 0
H(1)
Text Label 9700 1550 0    50   ~ 0
H(2)
Text Label 9700 1650 0    50   ~ 0
55V
Text Label 9700 1750 0    50   ~ 0
eht
NoConn ~ 9650 1350
Wire Wire Line
	6300 4100 6300 1250
Wire Wire Line
	6300 1250 9950 1250
Wire Wire Line
	7350 1150 7350 1400
Wire Wire Line
	7350 1150 9950 1150
Wire Wire Line
	9500 4700 9500 850 
Wire Wire Line
	9500 850  9950 850 
Connection ~ 9500 4700
Wire Wire Line
	9500 4700 9950 4700
Wire Wire Line
	9300 950  9300 800 
Wire Wire Line
	9300 800  6800 800 
Wire Wire Line
	6800 800  6800 1400
Wire Wire Line
	9300 950  9950 950 
Connection ~ 6800 1400
Wire Wire Line
	8150 4450 8100 4450
Wire Wire Line
	8100 4450 8100 900 
Wire Wire Line
	8100 900  9150 900 
Wire Wire Line
	9150 900  9150 1050
Wire Wire Line
	9150 1050 9950 1050
Connection ~ 8150 4450
Wire Wire Line
	8150 4450 8150 4350
Wire Wire Line
	1800 750  1900 750 
Wire Wire Line
	1900 750  1900 600 
Wire Wire Line
	9250 600  9250 1450
Wire Wire Line
	9250 1450 9950 1450
Wire Wire Line
	9350 1550 9350 550 
Wire Wire Line
	9350 550  1200 550 
Wire Wire Line
	1200 550  1200 1000
Wire Wire Line
	9350 1550 9950 1550
Connection ~ 1200 1000
Wire Wire Line
	1200 1000 1300 1000
$Comp
L Device:C C42
U 1 1 608687D1
P 7400 4600
F 0 "C42" V 7148 4600 50  0000 C CNN
F 1 "C" V 7239 4600 50  0000 C CNN
F 2 "" H 7438 4450 50  0001 C CNN
F 3 "~" H 7400 4600 50  0001 C CNN
	1    7400 4600
	0    1    1    0   
$EndComp
Wire Wire Line
	7550 4600 7600 4600
Wire Wire Line
	7600 4600 7600 4750
Connection ~ 7600 4750
$Comp
L Device:R R45
U 1 1 608CEB2C
P 7000 4600
F 0 "R45" V 6793 4600 50  0000 C CNN
F 1 "R" V 6884 4600 50  0000 C CNN
F 2 "" V 6930 4600 50  0001 C CNN
F 3 "~" H 7000 4600 50  0001 C CNN
	1    7000 4600
	0    1    1    0   
$EndComp
Wire Wire Line
	7150 4600 7250 4600
Text HLabel 6750 4600 0    50   Input ~ 0
to_J2_pin_11
Wire Wire Line
	6750 4600 6850 4600
$Comp
L Device:R R52
U 1 1 6078FDD2
P 9000 3800
F 0 "R52" H 9070 3846 50  0000 L CNN
F 1 "R" H 9070 3755 50  0000 L CNN
F 2 "" V 8930 3800 50  0001 C CNN
F 3 "~" H 9000 3800 50  0001 C CNN
	1    9000 3800
	1    0    0    -1  
$EndComp
Wire Wire Line
	9000 3950 9000 4000
Wire Wire Line
	9000 4000 9100 4000
Wire Wire Line
	9100 4000 9100 3900
Wire Wire Line
	9100 3900 9200 3900
Connection ~ 9200 3900
Wire Wire Line
	9200 3900 9200 3850
Wire Wire Line
	9000 3650 9000 3600
Connection ~ 9000 3600
Wire Wire Line
	9000 3600 9600 3600
$Comp
L Device:R_POT_TRIM R51
U 1 1 6085E124
P 10450 3850
F 0 "R51" H 10380 3896 50  0000 R CNN
F 1 "R_POT_TRIM" H 10380 3805 50  0000 R CNN
F 2 "" H 10450 3850 50  0001 C CNN
F 3 "~" H 10450 3850 50  0001 C CNN
	1    10450 3850
	1    0    0    -1  
$EndComp
Connection ~ 9600 3600
Wire Wire Line
	10450 3600 10450 3700
Wire Wire Line
	9600 3600 10450 3600
$Comp
L Device:R R50
U 1 1 60930AA4
P 10450 4350
F 0 "R50" H 10520 4396 50  0000 L CNN
F 1 "R" H 10520 4305 50  0000 L CNN
F 2 "" V 10380 4350 50  0001 C CNN
F 3 "~" H 10450 4350 50  0001 C CNN
	1    10450 4350
	1    0    0    -1  
$EndComp
Wire Wire Line
	10450 4200 10450 4100
Wire Wire Line
	10600 3850 10650 3850
Wire Wire Line
	10650 3850 10650 4100
Wire Wire Line
	10650 4100 10450 4100
Connection ~ 10450 4100
Wire Wire Line
	10450 4100 10450 4000
Wire Wire Line
	10450 4500 10450 5900
Wire Wire Line
	10450 5900 10250 5900
Connection ~ 10250 5900
Text Notes 10300 3700 0    50   ~ 0
hor. freq.
$Comp
L Device:R R55
U 1 1 60A6C628
P 10700 6100
F 0 "R55" H 10770 6146 50  0000 L CNN
F 1 "R" H 10770 6055 50  0000 L CNN
F 2 "" V 10630 6100 50  0001 C CNN
F 3 "~" H 10700 6100 50  0001 C CNN
	1    10700 6100
	1    0    0    -1  
$EndComp
Connection ~ 9600 6300
Wire Wire Line
	10700 2150 10700 5950
Wire Wire Line
	7350 2150 10700 2150
Connection ~ 7350 2150
Wire Wire Line
	10700 6300 10700 6250
Wire Wire Line
	9600 6300 10700 6300
Text Notes 10600 2400 0    50   ~ 0
hor. dir. select
Connection ~ 3750 7750
Connection ~ 3200 7250
Connection ~ 2800 7250
Connection ~ 2750 7150
Wire Wire Line
	3750 6650 3750 6400
Wire Wire Line
	3600 7250 3600 6550
Wire Wire Line
	2950 7250 2800 7250
Wire Wire Line
	2950 7650 2950 7250
Wire Wire Line
	3100 7650 2950 7650
Wire Wire Line
	3100 7600 3100 7650
Wire Wire Line
	3100 7250 3200 7250
Wire Wire Line
	3100 7300 3100 7250
Wire Wire Line
	2450 6800 2900 6800
Wire Wire Line
	2500 7750 3750 7750
$Comp
L Device:R R85
U 1 1 607A0BC3
P 3100 7450
F 0 "R85" H 3170 7496 50  0000 L CNN
F 1 "R" H 3170 7405 50  0000 L CNN
F 2 "" V 3030 7450 50  0001 C CNN
F 3 "~" H 3100 7450 50  0001 C CNN
	1    3100 7450
	1    0    0    -1  
$EndComp
Wire Wire Line
	2750 7150 4100 7150
$Comp
L Transistor_BJT:BC548 Q82
U 1 1 60614EF6
P 3100 6800
F 0 "Q82" H 3291 6846 50  0000 L CNN
F 1 "BC548B" H 3291 6755 50  0000 L CNN
F 2 "Package_TO_SOT_THT:TO-92_Inline" H 3300 6725 50  0001 L CIN
F 3 "https://www.onsemi.com/pub/Collateral/BC550-D.pdf" H 3100 6800 50  0001 L CNN
	1    3100 6800
	1    0    0    -1  
$EndComp
Wire Wire Line
	3200 6550 3600 6550
Wire Wire Line
	3450 5650 6400 5650
Wire Wire Line
	3200 7050 1800 7050
Wire Wire Line
	1800 7050 1800 6800
Connection ~ 3200 7050
Wire Wire Line
	3200 7050 3200 7250
Wire Wire Line
	1900 600  9250 600 
Wire Wire Line
	3800 1950 3800 1550
Connection ~ 3800 1950
$EndSCHEMATC
