EESchema Schematic File Version 4
EELAYER 30 0
EELAYER END
$Descr A4 11693 8268
encoding utf-8
Sheet 2 3
Title ""
Date ""
Rev ""
Comp ""
Comment1 "seen from component side"
Comment2 "upper left quadrant of board"
Comment3 ""
Comment4 ""
$EndDescr
Text HLabel 1600 4250 0    50   BiDi ~ 0
J99_1
Text HLabel 1600 4150 0    50   BiDi ~ 0
J99_2
Text HLabel 1600 4050 0    50   BiDi ~ 0
J99_3
Text HLabel 1600 3950 0    50   BiDi ~ 0
J99_4
Text HLabel 1600 3850 0    50   BiDi ~ 0
J99_5
Text HLabel 1600 3750 0    50   BiDi ~ 0
J99_6
$Comp
L Device:D_Schottky_KAK CR17
U 1 1 605CCB45
P 2450 4300
F 0 "CR17" H 2425 4581 50  0000 C CNN
F 1 "MBR1045" H 2425 4490 50  0000 C CNN
F 2 "" H 2450 4300 50  0001 C CNN
F 3 "~" H 2450 4300 50  0001 C CNN
	1    2450 4300
	-1   0    0    -1  
$EndComp
Wire Wire Line
	2250 4300 1750 4300
Wire Wire Line
	1750 4300 1750 4250
Wire Wire Line
	1750 4250 1600 4250
$Comp
L Device:CP C13
U 1 1 605CD868
P 3050 4350
F 0 "C13" H 3168 4396 50  0000 L CNN
F 1 "2200 uF" H 3168 4305 50  0000 L CNN
F 2 "" H 3088 4200 50  0001 C CNN
F 3 "~" H 3050 4350 50  0001 C CNN
	1    3050 4350
	1    0    0    -1  
$EndComp
Wire Wire Line
	3050 4200 2700 4200
Wire Wire Line
	1600 4150 1650 4150
Wire Wire Line
	1650 4150 1650 4600
Wire Wire Line
	1650 4600 2200 4600
Wire Wire Line
	3050 4600 3050 4500
$Comp
L Device:L_Core_Ferrite L3
U 1 1 605CE90D
P 3050 3950
F 0 "L3" H 3102 3996 50  0000 L CNN
F 1 "L" H 3102 3905 50  0000 L CNN
F 2 "" H 3050 3950 50  0001 C CNN
F 3 "~" H 3050 3950 50  0001 C CNN
	1    3050 3950
	1    0    0    -1  
$EndComp
Wire Wire Line
	3050 4100 3050 4200
Connection ~ 3050 4200
$Comp
L Connector:Conn_01x12_Male J2
U 1 1 605CF52A
P 1350 2200
F 0 "J2" H 1458 2881 50  0000 C CNN
F 1 "to processor board" H 1458 2790 50  0000 C CNN
F 2 "" H 1350 2200 50  0001 C CNN
F 3 "~" H 1350 2200 50  0001 C CNN
	1    1350 2200
	1    0    0    -1  
$EndComp
Wire Wire Line
	2200 4600 2200 2550
Wire Wire Line
	2200 2000 1700 2000
Connection ~ 2200 4600
Wire Wire Line
	2200 4600 3050 4600
Wire Wire Line
	1700 2000 1700 2100
Wire Wire Line
	1700 2200 1550 2200
Connection ~ 1700 2000
Wire Wire Line
	1700 2000 1550 2000
Wire Wire Line
	1550 2100 1700 2100
Connection ~ 1700 2100
Wire Wire Line
	1700 2100 1700 2200
Wire Wire Line
	3050 3800 3050 1700
Wire Wire Line
	3050 1700 2400 1700
Wire Wire Line
	1700 1700 1700 1800
Wire Wire Line
	1700 1900 1550 1900
Connection ~ 1700 1700
Wire Wire Line
	1700 1700 1550 1700
Wire Wire Line
	1550 1800 1700 1800
Connection ~ 1700 1800
Wire Wire Line
	1700 1800 1700 1900
$Comp
L Device:C C14
U 1 1 605D4E2B
P 2400 1950
F 0 "C14" H 2515 1996 50  0000 L CNN
F 1 "2200 uF" H 2515 1905 50  0000 L CNN
F 2 "" H 2438 1800 50  0001 C CNN
F 3 "~" H 2400 1950 50  0001 C CNN
	1    2400 1950
	1    0    0    -1  
$EndComp
Wire Wire Line
	2400 2100 2200 2100
Connection ~ 2200 2100
Wire Wire Line
	2200 2100 2200 2000
Wire Wire Line
	2400 1800 2400 1700
Connection ~ 2400 1700
Wire Wire Line
	2400 1700 1700 1700
$Comp
L Device:C C16
U 1 1 605D6B53
P 2400 2400
F 0 "C16" H 2515 2446 50  0000 L CNN
F 1 "2200 uF" H 2515 2355 50  0000 L CNN
F 2 "" H 2438 2250 50  0001 C CNN
F 3 "~" H 2400 2400 50  0001 C CNN
	1    2400 2400
	1    0    0    -1  
$EndComp
Wire Wire Line
	2400 2550 2200 2550
Connection ~ 2200 2550
Wire Wire Line
	2200 2550 2200 2100
Wire Wire Line
	2400 2250 1800 2250
Wire Wire Line
	1800 2250 1800 2300
Wire Wire Line
	1800 2300 1700 2300
$Comp
L Device:R R30
U 1 1 605D7D79
P 2200 4900
F 0 "R30" H 2130 4854 50  0000 R CNN
F 1 "100" H 2130 4945 50  0000 R CNN
F 2 "" V 2130 4900 50  0001 C CNN
F 3 "~" H 2200 4900 50  0001 C CNN
	1    2200 4900
	-1   0    0    1   
$EndComp
Connection ~ 3050 4600
$Comp
L Mechanical:MountingHole_Pad H1
U 1 1 605D8DD3
P 1450 5000
F 0 "H1" V 1687 5003 50  0000 C CNN
F 1 "chassis GND" V 1596 5003 50  0000 C CNN
F 2 "" H 1450 5000 50  0001 C CNN
F 3 "~" H 1450 5000 50  0001 C CNN
	1    1450 5000
	0    -1   -1   0   
$EndComp
Wire Wire Line
	2200 4600 2200 4750
Wire Wire Line
	2200 5050 2200 5150
Wire Wire Line
	2200 5150 1750 5150
Wire Wire Line
	1750 5150 1750 5000
Wire Wire Line
	1750 5000 1550 5000
$Comp
L Device:D CR19
U 1 1 605DC004
P 1700 2800
F 0 "CR19" V 1654 2880 50  0000 L CNN
F 1 "D" V 1745 2880 50  0000 L CNN
F 2 "" H 1700 2800 50  0001 C CNN
F 3 "~" H 1700 2800 50  0001 C CNN
	1    1700 2800
	0    1    1    0   
$EndComp
Connection ~ 1800 2300
Wire Wire Line
	1700 4050 1600 4050
$Comp
L Device:D CR20
U 1 1 605DDC0E
P 2450 3350
F 0 "CR20" V 2496 3270 50  0000 R CNN
F 1 "D" V 2405 3270 50  0000 R CNN
F 2 "" H 2450 3350 50  0001 C CNN
F 3 "~" H 2450 3350 50  0001 C CNN
	1    2450 3350
	0    -1   -1   0   
$EndComp
Wire Wire Line
	1600 3950 1800 3950
Wire Wire Line
	1800 3950 1800 3600
Wire Wire Line
	1800 3600 2450 3600
Wire Wire Line
	2450 3600 2450 3500
$Comp
L Device:D CR21
U 1 1 605DF233
P 2450 3750
F 0 "CR21" V 2496 3670 50  0000 R CNN
F 1 "D" V 2405 3670 50  0000 R CNN
F 2 "" H 2450 3750 50  0001 C CNN
F 3 "~" H 2450 3750 50  0001 C CNN
	1    2450 3750
	0    -1   -1   0   
$EndComp
Connection ~ 2450 3600
$Comp
L Device:C C17
U 1 1 605E3C57
P 2450 2900
F 0 "C17" H 2565 2946 50  0000 L CNN
F 1 "2200 uF" H 2565 2855 50  0000 L CNN
F 2 "" H 2488 2750 50  0001 C CNN
F 3 "~" H 2450 2900 50  0001 C CNN
	1    2450 2900
	1    0    0    -1  
$EndComp
Wire Wire Line
	2450 3050 2450 3200
$Comp
L Device:C C19
U 1 1 605E4C2F
P 3300 2600
F 0 "C19" H 3415 2646 50  0000 L CNN
F 1 "0.1 uF" H 3415 2555 50  0000 L CNN
F 2 "" H 3338 2450 50  0001 C CNN
F 3 "~" H 3300 2600 50  0001 C CNN
	1    3300 2600
	1    0    0    -1  
$EndComp
Wire Wire Line
	2450 3900 2450 3950
Wire Wire Line
	2450 3950 2750 3950
Wire Wire Line
	2750 3950 2750 3600
Wire Wire Line
	2750 3600 3300 3600
Wire Wire Line
	3300 3600 3300 2900
Wire Wire Line
	3300 2450 3000 2450
Wire Wire Line
	3000 2450 3000 2650
Wire Wire Line
	3000 2650 2450 2650
Wire Wire Line
	2450 2650 2450 2750
$Comp
L Device:R R26
U 1 1 605E75F7
P 3750 2600
F 0 "R26" H 3820 2646 50  0000 L CNN
F 1 "R" H 3820 2555 50  0000 L CNN
F 2 "" V 3680 2600 50  0001 C CNN
F 3 "~" H 3750 2600 50  0001 C CNN
	1    3750 2600
	1    0    0    -1  
$EndComp
Wire Wire Line
	3300 2900 3750 2900
Connection ~ 3300 2900
Wire Wire Line
	3300 2900 3300 2750
Wire Wire Line
	2950 2400 2950 2600
Wire Wire Line
	2950 2600 2100 2600
Wire Wire Line
	2100 2600 2100 2500
Wire Wire Line
	2100 2500 1550 2500
NoConn ~ 1650 3750
Wire Wire Line
	1650 3750 1600 3750
Wire Wire Line
	3500 3650 3500 3550
Wire Wire Line
	3500 3550 1850 3550
Wire Wire Line
	1850 3550 1850 3850
Wire Wire Line
	1850 3850 1600 3850
$Comp
L Device:CP C15
U 1 1 605EF1F9
P 3600 4350
F 0 "C15" H 3718 4396 50  0000 L CNN
F 1 "220 uF" H 3718 4305 50  0000 L CNN
F 2 "" H 3638 4200 50  0001 C CNN
F 3 "~" H 3600 4350 50  0001 C CNN
	1    3600 4350
	1    0    0    -1  
$EndComp
Wire Wire Line
	3050 4600 3600 4600
Wire Wire Line
	3500 4100 3500 3950
$Comp
L Device:L_Core_Ferrite L41
U 1 1 605F43A5
P 4100 3850
F 0 "L41" H 4152 3896 50  0000 L CNN
F 1 "L" H 4152 3805 50  0000 L CNN
F 2 "" H 4100 3850 50  0001 C CNN
F 3 "~" H 4100 3850 50  0001 C CNN
	1    4100 3850
	1    0    0    -1  
$EndComp
$Comp
L Device:D CR25
U 1 1 605F639F
P 4400 4350
F 0 "CR25" V 4354 4430 50  0000 L CNN
F 1 "D" V 4445 4430 50  0000 L CNN
F 2 "" H 4400 4350 50  0001 C CNN
F 3 "~" H 4400 4350 50  0001 C CNN
	1    4400 4350
	0    1    1    0   
$EndComp
Wire Wire Line
	4400 4600 4400 4500
$Comp
L Device:D CR22
U 1 1 605F81D0
P 2700 4900
F 0 "CR22" V 2654 4980 50  0000 L CNN
F 1 "D" V 2745 4980 50  0000 L CNN
F 2 "" H 2700 4900 50  0001 C CNN
F 3 "~" H 2700 4900 50  0001 C CNN
	1    2700 4900
	0    1    1    0   
$EndComp
$Comp
L Device:R R21
U 1 1 605FA24C
P 3100 4900
F 0 "R21" H 3170 4946 50  0000 L CNN
F 1 "R" H 3170 4855 50  0000 L CNN
F 2 "" V 3030 4900 50  0001 C CNN
F 3 "~" H 3100 4900 50  0001 C CNN
	1    3100 4900
	1    0    0    -1  
$EndComp
Wire Wire Line
	3100 4750 2700 4750
Connection ~ 2700 4750
$Comp
L Device:R_POT_TRIM R22
U 1 1 605FC8DE
P 3900 5050
F 0 "R22" H 3830 5004 50  0000 R CNN
F 1 "R_POT_TRIM" H 3830 5095 50  0000 R CNN
F 2 "" H 3900 5050 50  0001 C CNN
F 3 "~" H 3900 5050 50  0001 C CNN
	1    3900 5050
	-1   0    0    1   
$EndComp
Wire Wire Line
	3100 5050 3700 5050
Wire Wire Line
	2700 4300 2700 4750
Wire Wire Line
	3900 5200 2700 5200
Wire Wire Line
	2700 5200 2700 5050
Wire Wire Line
	3900 4850 3900 4900
Wire Wire Line
	4350 5200 4350 4600
Connection ~ 4350 4600
Wire Wire Line
	4350 4600 4400 4600
$Comp
L Device:C C22
U 1 1 60607CEF
P 4650 5000
F 0 "C22" H 4765 5046 50  0000 L CNN
F 1 "C" H 4765 4955 50  0000 L CNN
F 2 "" H 4688 4850 50  0001 C CNN
F 3 "~" H 4650 5000 50  0001 C CNN
	1    4650 5000
	1    0    0    -1  
$EndComp
$Comp
L Transistor_BJT:BC548 Q8
U 1 1 60601216
P 5250 4950
F 0 "Q8" H 5441 4996 50  0000 L CNN
F 1 "BC548" H 5441 4905 50  0000 L CNN
F 2 "Package_TO_SOT_THT:TO-92_Inline" H 5450 4875 50  0001 L CIN
F 3 "https://www.onsemi.com/pub/Collateral/BC550-D.pdf" H 5250 4950 50  0001 L CNN
	1    5250 4950
	1    0    0    -1  
$EndComp
Wire Wire Line
	5350 5200 5350 5150
Wire Wire Line
	4350 5200 4650 5200
Wire Wire Line
	4650 5150 4650 5200
Connection ~ 4650 5200
Wire Wire Line
	4650 5200 5350 5200
Wire Wire Line
	3900 4850 4650 4850
Wire Wire Line
	4650 4850 4950 4850
Wire Wire Line
	4950 4850 4950 4950
Wire Wire Line
	4950 4950 5050 4950
Connection ~ 4650 4850
$Comp
L Device:R R20
U 1 1 60619ACC
P 5350 4500
F 0 "R20" H 5420 4546 50  0000 L CNN
F 1 "R" H 5420 4455 50  0000 L CNN
F 2 "" V 5280 4500 50  0001 C CNN
F 3 "~" H 5350 4500 50  0001 C CNN
	1    5350 4500
	1    0    0    -1  
$EndComp
Wire Wire Line
	5350 4650 5350 4750
Text HLabel 1450 5650 0    50   BiDi ~ 0
Opto_1
Text HLabel 1450 5550 0    50   BiDi ~ 0
Opto_2
Wire Wire Line
	1450 5550 5000 5550
Wire Wire Line
	5000 5550 5000 4250
Wire Wire Line
	5000 4250 5350 4250
Wire Wire Line
	5350 4250 5350 4350
Wire Wire Line
	1450 5650 1550 5650
Wire Wire Line
	1550 5650 1550 5400
Wire Wire Line
	1550 5400 1200 5400
Wire Wire Line
	1200 5400 1200 2350
Wire Wire Line
	1200 2350 1700 2350
Wire Wire Line
	1700 2350 1700 2300
Connection ~ 1700 2300
Wire Wire Line
	1700 2300 1550 2300
Text Notes 3650 5300 0    50   ~ 0
5V adjustment
Wire Wire Line
	3900 4850 3700 4850
Wire Wire Line
	3700 4850 3700 5050
Connection ~ 3900 4850
Connection ~ 3700 5050
Wire Wire Line
	3700 5050 3750 5050
Wire Wire Line
	1550 2400 1750 2400
Wire Wire Line
	1750 2400 1750 3100
Wire Wire Line
	4400 4200 4400 3700
Wire Wire Line
	4400 3500 4500 3500
$Comp
L Device:R R28
U 1 1 60679D0E
P 4500 3850
F 0 "R28" H 4570 3896 50  0000 L CNN
F 1 "R" H 4570 3805 50  0000 L CNN
F 2 "" V 4430 3850 50  0001 C CNN
F 3 "~" H 4500 3850 50  0001 C CNN
	1    4500 3850
	1    0    0    -1  
$EndComp
Connection ~ 4400 3500
$Comp
L Device:R R29
U 1 1 60681400
P 4800 3000
F 0 "R29" H 4870 3046 50  0000 L CNN
F 1 "R" H 4870 2955 50  0000 L CNN
F 2 "" V 4730 3000 50  0001 C CNN
F 3 "~" H 4800 3000 50  0001 C CNN
	1    4800 3000
	1    0    0    -1  
$EndComp
Wire Wire Line
	4200 3200 2450 3200
Wire Wire Line
	1650 3200 1650 2600
Wire Wire Line
	1650 2600 1550 2600
Connection ~ 2450 3200
Wire Wire Line
	2450 3200 1650 3200
$Comp
L Device:R R27
U 1 1 60689D46
P 3450 1900
F 0 "R27" H 3520 1946 50  0000 L CNN
F 1 "R" H 3520 1855 50  0000 L CNN
F 2 "" V 3380 1900 50  0001 C CNN
F 3 "~" H 3450 1900 50  0001 C CNN
	1    3450 1900
	1    0    0    -1  
$EndComp
Wire Wire Line
	3050 1700 3450 1700
Wire Wire Line
	3450 1700 3450 1750
Connection ~ 3050 1700
$Comp
L Device:D CR23
U 1 1 6068EC00
P 3800 1900
F 0 "CR23" V 3754 1980 50  0000 L CNN
F 1 "D" V 3845 1980 50  0000 L CNN
F 2 "" H 3800 1900 50  0001 C CNN
F 3 "~" H 3800 1900 50  0001 C CNN
	1    3800 1900
	0    1    1    0   
$EndComp
$Comp
L Device:D CR24
U 1 1 6068F33A
P 4150 1900
F 0 "CR24" V 4104 1980 50  0000 L CNN
F 1 "D" V 4195 1980 50  0000 L CNN
F 2 "" H 4150 1900 50  0001 C CNN
F 3 "~" H 4150 1900 50  0001 C CNN
	1    4150 1900
	0    1    1    0   
$EndComp
Wire Wire Line
	3450 1700 3800 1700
Wire Wire Line
	4150 1700 4150 1750
Connection ~ 3450 1700
Wire Wire Line
	3800 1750 3800 1700
Connection ~ 3800 1700
Wire Wire Line
	3800 1700 4150 1700
Wire Wire Line
	5050 2350 3450 2350
Wire Wire Line
	3450 2350 3450 2050
Wire Wire Line
	4150 2050 4150 2650
$Comp
L Device:Q_SCR_KAG Q9
U 1 1 606A39D1
P 5200 1700
F 0 "Q9" H 5288 1746 50  0000 L CNN
F 1 "MCR106-4" H 5288 1655 50  0000 L CNN
F 2 "" V 5200 1700 50  0001 C CNN
F 3 "~" V 5200 1700 50  0001 C CNN
	1    5200 1700
	1    0    0    -1  
$EndComp
Wire Wire Line
	3800 2150 3800 2050
Wire Wire Line
	1700 2200 4000 2200
Wire Wire Line
	4200 2200 4200 2300
Wire Wire Line
	4200 2300 4650 2300
Connection ~ 1700 2200
$Comp
L Device:R R24
U 1 1 606AF977
P 5800 1700
F 0 "R24" H 5870 1746 50  0000 L CNN
F 1 "R" H 5870 1655 50  0000 L CNN
F 2 "" V 5730 1700 50  0001 C CNN
F 3 "~" H 5800 1700 50  0001 C CNN
	1    5800 1700
	1    0    0    -1  
$EndComp
Wire Wire Line
	4650 2050 4650 2300
Connection ~ 4650 2300
Wire Wire Line
	4500 1700 4500 2150
Wire Wire Line
	4500 2150 3800 2150
$Comp
L Device:D CR26
U 1 1 606C24CF
P 3100 1950
F 0 "CR26" V 3146 1870 50  0000 R CNN
F 1 "D" V 3055 1870 50  0000 R CNN
F 2 "" H 3100 1950 50  0001 C CNN
F 3 "~" H 3100 1950 50  0001 C CNN
	1    3100 1950
	0    1    1    0   
$EndComp
Connection ~ 2400 2250
Wire Wire Line
	3800 2150 3100 2150
Connection ~ 3800 2150
Wire Wire Line
	5200 1550 5800 1550
Wire Wire Line
	4950 1700 4950 1800
Wire Wire Line
	4950 1800 5050 1800
Wire Wire Line
	4650 1750 4650 1700
Wire Wire Line
	4650 1700 4950 1700
Connection ~ 4650 1700
Wire Wire Line
	4500 1700 4650 1700
$Comp
L Device:C C18
U 1 1 606B5B79
P 4650 1900
F 0 "C18" H 4765 1946 50  0000 L CNN
F 1 "0.1 uF" H 4765 1855 50  0000 L CNN
F 2 "" H 4688 1750 50  0001 C CNN
F 3 "~" H 4650 1900 50  0001 C CNN
	1    4650 1900
	1    0    0    -1  
$EndComp
Wire Wire Line
	4650 2300 4950 2300
$Comp
L Device:R R25
U 1 1 6044ABCB
P 4950 2100
F 0 "R25" H 5020 2146 50  0000 L CNN
F 1 "R" H 5020 2055 50  0000 L CNN
F 2 "" V 4880 2100 50  0001 C CNN
F 3 "~" H 4950 2100 50  0001 C CNN
	1    4950 2100
	1    0    0    -1  
$EndComp
Wire Wire Line
	4950 2250 4950 2300
Connection ~ 4950 2300
Wire Wire Line
	4950 1950 4950 1800
Connection ~ 4950 1800
Wire Wire Line
	5200 1850 5200 2300
Wire Wire Line
	4950 2300 5200 2300
$Comp
L Device:R R89
U 1 1 60467312
P 6400 1950
F 0 "R89" H 6470 1996 50  0000 L CNN
F 1 "R" H 6470 1905 50  0000 L CNN
F 2 "" V 6330 1950 50  0001 C CNN
F 3 "~" H 6400 1950 50  0001 C CNN
	1    6400 1950
	1    0    0    -1  
$EndComp
Wire Wire Line
	6400 1800 6400 1650
$Comp
L power:-12V #PWR0102
U 1 1 6046F4C4
P 6400 1650
F 0 "#PWR0102" H 6400 1750 50  0001 C CNN
F 1 "-12V" H 6415 1823 50  0000 C CNN
F 2 "" H 6400 1650 50  0001 C CNN
F 3 "" H 6400 1650 50  0001 C CNN
	1    6400 1650
	1    0    0    -1  
$EndComp
Wire Wire Line
	2800 2250 2800 1500
Wire Wire Line
	2800 2250 2400 2250
Wire Wire Line
	3100 2100 3100 2150
Wire Wire Line
	3100 1800 3100 1500
$Comp
L Transistor_BJT:BC558 Q10
U 1 1 607890CC
P 4700 3500
F 0 "Q10" H 4891 3546 50  0000 L CNN
F 1 "BC558B" H 4891 3455 50  0000 L CNN
F 2 "Package_TO_SOT_THT:TO-92_Inline" H 4900 3425 50  0001 L CIN
F 3 "https://www.onsemi.com/pub/Collateral/BC556BTA-D.pdf" H 4700 3500 50  0001 L CNN
	1    4700 3500
	1    0    0    -1  
$EndComp
Wire Wire Line
	4800 2850 4800 2800
Wire Wire Line
	4800 2800 4500 2800
Wire Wire Line
	4500 2800 4500 2950
Wire Wire Line
	4500 2950 4200 2950
Wire Wire Line
	4200 2950 4200 3200
Wire Wire Line
	4800 3150 4800 3250
Wire Wire Line
	5050 3250 5050 2350
Wire Wire Line
	4800 3250 5050 3250
Connection ~ 4800 3250
Wire Wire Line
	4800 3250 4800 3300
Wire Wire Line
	4500 4000 4500 4100
Wire Wire Line
	4500 4100 4800 4100
Wire Wire Line
	4800 3700 4800 4100
Wire Wire Line
	4500 3700 4400 3700
Connection ~ 4400 3700
Wire Wire Line
	4400 3700 4400 3500
Wire Wire Line
	4500 4100 4300 4100
Connection ~ 4500 4100
Wire Wire Line
	4400 3500 4400 2750
Wire Wire Line
	4150 2750 4400 2750
Wire Wire Line
	4300 3100 4300 4100
$Comp
L Device:C C41
U 1 1 607D8E4C
P 4000 3450
F 0 "C41" H 4115 3496 50  0000 L CNN
F 1 "C" H 4115 3405 50  0000 L CNN
F 2 "" H 4038 3300 50  0001 C CNN
F 3 "~" H 4000 3450 50  0001 C CNN
	1    4000 3450
	1    0    0    -1  
$EndComp
Wire Wire Line
	4000 3600 4000 3650
Connection ~ 4000 2200
Wire Wire Line
	4000 2200 4200 2200
Text HLabel 1850 5850 0    50   Input ~ 0
from_R24_to_R73
Wire Wire Line
	5800 5850 5800 1850
Wire Wire Line
	1850 5850 5800 5850
Wire Wire Line
	4800 4100 6400 4100
Connection ~ 4800 4100
Wire Wire Line
	6400 2100 6400 4100
Text HLabel 1850 6000 0    50   Input ~ 0
from_J2_pin_8
Wire Wire Line
	1850 6000 1950 6000
Wire Wire Line
	1950 6000 1950 3100
Wire Wire Line
	1750 3100 1950 3100
Connection ~ 1950 3100
Wire Wire Line
	1950 3100 4300 3100
Text HLabel 1800 6150 0    50   Input ~ 0
from_J2_pin_12
Wire Wire Line
	1550 2800 2050 2800
Wire Wire Line
	2050 2800 2050 6150
Wire Wire Line
	2050 6150 1800 6150
Text GLabel 4250 2650 2    50   Input ~ 0
to_R28_CR24_CR25
Wire Wire Line
	3600 4200 3600 4100
Connection ~ 3600 4100
Wire Wire Line
	3600 4100 3500 4100
Wire Wire Line
	3600 4500 3600 4600
Connection ~ 3600 4600
Wire Wire Line
	3600 4600 4350 4600
$Comp
L Device:R R59
U 1 1 61037F1C
P 3850 3850
F 0 "R59" H 3920 3896 50  0000 L CNN
F 1 "R" H 3920 3805 50  0000 L CNN
F 2 "" V 3780 3850 50  0001 C CNN
F 3 "~" H 3850 3850 50  0001 C CNN
	1    3850 3850
	1    0    0    -1  
$EndComp
$Comp
L Device:D CR18
U 1 1 605EC9E9
P 3500 3800
F 0 "CR18" V 3546 3880 50  0000 L CNN
F 1 "D" V 3455 3880 50  0000 L CNN
F 2 "" H 3500 3800 50  0001 C CNN
F 3 "~" H 3500 3800 50  0001 C CNN
	1    3500 3800
	0    1    -1   0   
$EndComp
Wire Wire Line
	3850 3700 3850 3650
Wire Wire Line
	3850 3650 4000 3650
Connection ~ 4000 3650
Wire Wire Line
	4100 4100 4100 4000
Wire Wire Line
	3600 4100 4100 4100
Wire Wire Line
	4100 3700 4100 3650
Wire Wire Line
	4100 3650 4000 3650
Text GLabel 1550 6650 0    50   Input ~ 0
J3_pin_2
Wire Wire Line
	3850 4000 3850 4050
Wire Wire Line
	3850 4050 3400 4050
Text Label 3850 3650 0    50   ~ 0
55V
Wire Wire Line
	3750 2450 3750 2400
Wire Wire Line
	3750 2400 2950 2400
Wire Wire Line
	3750 2750 3750 2900
Wire Wire Line
	1550 6650 3400 6650
Wire Wire Line
	3400 4050 3400 6650
Text HLabel 1800 6350 0    50   Input ~ 0
from_J2_pin_11
Wire Wire Line
	1700 2950 1700 4050
Wire Wire Line
	1700 2650 1700 2550
Wire Wire Line
	1700 2550 1800 2550
Wire Wire Line
	1800 2550 1800 2300
Wire Wire Line
	1550 2700 2100 2700
Wire Wire Line
	2100 2700 2100 6350
Wire Wire Line
	2100 6350 1800 6350
$Comp
L Device:R R81
U 1 1 60BB07D3
P 3100 1250
F 0 "R81" H 3170 1296 50  0000 L CNN
F 1 "R" H 3170 1205 50  0000 L CNN
F 2 "" V 3030 1250 50  0001 C CNN
F 3 "~" H 3100 1250 50  0001 C CNN
	1    3100 1250
	1    0    0    -1  
$EndComp
$Comp
L power:+12V #PWR?
U 1 1 60BB0FB4
P 3100 1000
F 0 "#PWR?" H 3100 850 50  0001 C CNN
F 1 "+12V" H 3115 1173 50  0000 C CNN
F 2 "" H 3100 1000 50  0001 C CNN
F 3 "" H 3100 1000 50  0001 C CNN
	1    3100 1000
	1    0    0    -1  
$EndComp
Wire Wire Line
	3100 1000 3100 1100
Wire Wire Line
	2800 1500 3100 1500
Wire Wire Line
	3100 1500 3100 1400
Connection ~ 3100 1500
Wire Wire Line
	4000 2200 4000 3300
Wire Wire Line
	4250 2650 4150 2650
Connection ~ 4150 2650
Wire Wire Line
	4150 2650 4150 2750
$EndSCHEMATC
