EESchema Schematic File Version 4
EELAYER 30 0
EELAYER END
$Descr A4 11693 8268
encoding utf-8
Sheet 1 3
Title "Tandberg TDV 1200 Power / Deflection"
Date ""
Rev ""
Comp ""
Comment1 "schematic created from an actual board"
Comment2 "board appears to be single layer - no vias, only wire links"
Comment3 "seen from component side"
Comment4 "lower left quadrant of board"
$EndDescr
$Comp
L Connector:Conn_01x03_Male J1
U 1 1 603627B2
P 650 5100
F 0 "J1" H 758 5381 50  0000 C CNN
F 1 "mains in" H 758 5290 50  0000 C CNN
F 2 "" H 650 5100 50  0001 C CNN
F 3 "~" H 650 5100 50  0001 C CNN
	1    650  5100
	1    0    0    -1  
$EndComp
Text Notes 500  5600 0    50   ~ 0
mains in (230 V) from power switch on pin 1 and 3
$Comp
L Device:C C1
U 1 1 60364096
P 1300 5250
F 0 "C1" H 1415 5296 50  0000 L CNN
F 1 "47 nF" H 1415 5205 50  0000 L CNN
F 2 "" H 1338 5100 50  0001 C CNN
F 3 "~" H 1300 5250 50  0001 C CNN
	1    1300 5250
	1    0    0    -1  
$EndComp
Text Label 1300 5150 0    50   ~ 0
RIFA_X2
$Comp
L Device:D CR1
U 1 1 60364D60
P 1650 3900
F 0 "CR1" V 1604 3820 50  0000 R CNN
F 1 "BY127M" V 1695 3820 50  0000 R CNN
F 2 "" H 1650 3900 50  0001 C CNN
F 3 "~" H 1650 3900 50  0001 C CNN
	1    1650 3900
	0    1    1    0   
$EndComp
$Comp
L Device:D CR2
U 1 1 6036559F
P 1650 4400
F 0 "CR2" V 1604 4320 50  0000 R CNN
F 1 "BY127M" V 1695 4320 50  0000 R CNN
F 2 "" H 1650 4400 50  0001 C CNN
F 3 "~" H 1650 4400 50  0001 C CNN
	1    1650 4400
	0    1    1    0   
$EndComp
$Comp
L Device:D CR3
U 1 1 60366078
P 2100 3900
F 0 "CR3" V 2054 3820 50  0000 R CNN
F 1 "BY127M" V 2145 3820 50  0000 R CNN
F 2 "" H 2100 3900 50  0001 C CNN
F 3 "~" H 2100 3900 50  0001 C CNN
	1    2100 3900
	0    1    1    0   
$EndComp
$Comp
L Device:D CR4
U 1 1 6036669E
P 2100 4400
F 0 "CR4" V 2054 4480 50  0000 L CNN
F 1 "BY127M" V 2145 4480 50  0000 L CNN
F 2 "" H 2100 4400 50  0001 C CNN
F 3 "~" H 2100 4400 50  0001 C CNN
	1    2100 4400
	0    1    1    0   
$EndComp
$Comp
L Device:Fuse F1
U 1 1 60366B16
P 3300 2600
F 0 "F1" V 3103 2600 50  0000 C CNN
F 1 "T1.25 A" V 3194 2600 50  0000 C CNN
F 2 "" V 3230 2600 50  0001 C CNN
F 3 "~" H 3300 2600 50  0001 C CNN
	1    3300 2600
	0    1    1    0   
$EndComp
$Comp
L Device:R R3
U 1 1 603673CD
P 2750 4150
F 0 "R3" H 2820 4196 50  0000 L CNN
F 1 "100 k" H 2820 4105 50  0000 L CNN
F 2 "" V 2680 4150 50  0001 C CNN
F 3 "~" H 2750 4150 50  0001 C CNN
	1    2750 4150
	1    0    0    -1  
$EndComp
$Comp
L Device:CP C2
U 1 1 60367DEB
P 3100 4100
F 0 "C2" H 3218 4146 50  0000 L CNN
F 1 "220 uF" H 3218 4055 50  0000 L CNN
F 2 "" H 3138 3950 50  0001 C CNN
F 3 "~" H 3100 4100 50  0001 C CNN
	1    3100 4100
	1    0    0    -1  
$EndComp
$Comp
L Device:CP C3
U 1 1 6036A337
P 3100 4550
F 0 "C3" H 3218 4596 50  0000 L CNN
F 1 "220 uF" H 3218 4505 50  0000 L CNN
F 2 "" H 3138 4400 50  0001 C CNN
F 3 "~" H 3100 4550 50  0001 C CNN
	1    3100 4550
	1    0    0    -1  
$EndComp
Wire Wire Line
	3100 4250 3100 4300
$Comp
L Device:Fuse F3
U 1 1 6036B49D
P 4000 4300
F 0 "F3" V 3803 4300 50  0000 C CNN
F 1 "T1.25 A" V 3894 4300 50  0000 C CNN
F 2 "" V 3930 4300 50  0001 C CNN
F 3 "~" H 4000 4300 50  0001 C CNN
	1    4000 4300
	0    1    1    0   
$EndComp
Connection ~ 3100 4300
Wire Wire Line
	3100 4300 3100 4400
Wire Wire Line
	2750 4000 2750 3950
Connection ~ 2750 3950
Wire Wire Line
	2750 3950 3100 3950
Wire Wire Line
	2750 4300 3100 4300
$Comp
L Device:C C4
U 1 1 6036CC70
P 3400 3800
F 0 "C4" H 3515 3846 50  0000 L CNN
F 1 "47 uF" H 3515 3755 50  0000 L CNN
F 2 "" H 3438 3650 50  0001 C CNN
F 3 "~" H 3400 3800 50  0001 C CNN
	1    3400 3800
	1    0    0    -1  
$EndComp
Wire Wire Line
	3400 3950 3100 3950
Connection ~ 3100 3950
Text Notes 2950 2750 0    50   ~ 0
230 V operation
Wire Wire Line
	3100 4300 3600 4300
$Comp
L Device:R R4
U 1 1 6036E45A
P 3600 4100
F 0 "R4" H 3670 4146 50  0000 L CNN
F 1 "100 k" H 3670 4055 50  0000 L CNN
F 2 "" V 3530 4100 50  0001 C CNN
F 3 "~" H 3600 4100 50  0001 C CNN
	1    3600 4100
	1    0    0    -1  
$EndComp
Connection ~ 3600 4300
Wire Wire Line
	3600 4300 3850 4300
$Comp
L Device:L_Core_Ferrite L1
U 1 1 6036F426
P 3450 5500
F 0 "L1" V 3269 5500 50  0000 C CNN
F 1 "L" V 3360 5500 50  0000 C CNN
F 2 "" H 3450 5500 50  0001 C CNN
F 3 "~" H 3450 5500 50  0001 C CNN
	1    3450 5500
	0    1    1    0   
$EndComp
$Comp
L Device:L_Core_Ferrite L2
U 1 1 6036FF64
P 3900 5500
F 0 "L2" V 3719 5500 50  0000 C CNN
F 1 "L" V 3810 5500 50  0000 C CNN
F 2 "" H 3900 5500 50  0001 C CNN
F 3 "~" H 3900 5500 50  0001 C CNN
	1    3900 5500
	0    1    1    0   
$EndComp
Wire Wire Line
	3750 5500 3600 5500
Wire Wire Line
	3400 3650 4150 3650
$Comp
L Device:Fuse F2
U 1 1 60371026
P 3350 3050
F 0 "F2" V 3153 3050 50  0000 C CNN
F 1 "F1 A" V 3244 3050 50  0000 C CNN
F 2 "" V 3280 3050 50  0001 C CNN
F 3 "~" H 3350 3050 50  0001 C CNN
	1    3350 3050
	0    1    1    0   
$EndComp
Wire Wire Line
	3200 3050 3100 3050
Wire Wire Line
	3100 3050 3100 3950
$Comp
L Device:C C20
U 1 1 603763E1
P 3600 3250
F 0 "C20" H 3715 3296 50  0000 L CNN
F 1 "4700 pF" H 3715 3205 50  0000 L CNN
F 2 "" H 3638 3100 50  0001 C CNN
F 3 "~" H 3600 3250 50  0001 C CNN
	1    3600 3250
	1    0    0    -1  
$EndComp
$Comp
L power:GND #PWR0101
U 1 1 60377EDC
P 3750 5850
F 0 "#PWR0101" H 3750 5600 50  0001 C CNN
F 1 "GND" H 3755 5677 50  0000 C CNN
F 2 "" H 3750 5850 50  0001 C CNN
F 3 "" H 3750 5850 50  0001 C CNN
	1    3750 5850
	1    0    0    -1  
$EndComp
Wire Wire Line
	3750 5850 3950 5850
Text Label 3600 3150 0    50   ~ 0
RIFA_Y
$Comp
L Device:R R17
U 1 1 60379D30
P 4900 2100
F 0 "R17" H 4970 2146 50  0000 L CNN
F 1 "47 k" H 4970 2055 50  0000 L CNN
F 2 "" V 4830 2100 50  0001 C CNN
F 3 "~" H 4900 2100 50  0001 C CNN
	1    4900 2100
	1    0    0    -1  
$EndComp
$Comp
L Device:R R1
U 1 1 6037B22E
P 4400 5200
F 0 "R1" H 4470 5246 50  0000 L CNN
F 1 "6R8" H 4470 5155 50  0000 L CNN
F 2 "" V 4330 5200 50  0001 C CNN
F 3 "~" H 4400 5200 50  0001 C CNN
	1    4400 5200
	1    0    0    -1  
$EndComp
$Comp
L Device:R R8
U 1 1 6037D2FB
P 6000 3650
F 0 "R8" H 6070 3696 50  0000 L CNN
F 1 "47" H 6070 3605 50  0000 L CNN
F 2 "" V 5930 3650 50  0001 C CNN
F 3 "~" H 6000 3650 50  0001 C CNN
	1    6000 3650
	1    0    0    -1  
$EndComp
Wire Wire Line
	3600 4300 3600 4250
$Comp
L Transistor_BJT:BC548 Q3
U 1 1 60380996
P 7400 4700
F 0 "Q3" H 7591 4746 50  0000 L CNN
F 1 "BC548" H 7591 4655 50  0000 L CNN
F 2 "Package_TO_SOT_THT:TO-92_Inline" H 7600 4625 50  0001 L CIN
F 3 "https://www.onsemi.com/pub/Collateral/BC550-D.pdf" H 7400 4700 50  0001 L CNN
	1    7400 4700
	1    0    0    -1  
$EndComp
$Comp
L Device:R R10
U 1 1 6038305B
P 7200 4200
F 0 "R10" H 7270 4246 50  0000 L CNN
F 1 "470" H 7270 4155 50  0000 L CNN
F 2 "" V 7130 4200 50  0001 C CNN
F 3 "~" H 7200 4200 50  0001 C CNN
	1    7200 4200
	1    0    0    -1  
$EndComp
$Comp
L Transistor_BJT:BC548 Q1
U 1 1 60384704
P 6650 4750
F 0 "Q1" H 6841 4796 50  0000 L CNN
F 1 "BC548" H 6841 4705 50  0000 L CNN
F 2 "Package_TO_SOT_THT:TO-92_Inline" H 6850 4675 50  0001 L CIN
F 3 "https://www.onsemi.com/pub/Collateral/BC550-D.pdf" H 6650 4750 50  0001 L CNN
	1    6650 4750
	1    0    0    -1  
$EndComp
$Comp
L Transistor_BJT:BC548 Q2
U 1 1 603858B5
P 8300 4600
F 0 "Q2" H 8491 4646 50  0000 L CNN
F 1 "BC548" H 8491 4555 50  0000 L CNN
F 2 "Package_TO_SOT_THT:TO-92_Inline" H 8500 4525 50  0001 L CIN
F 3 "https://www.onsemi.com/pub/Collateral/BC550-D.pdf" H 8300 4600 50  0001 L CNN
	1    8300 4600
	1    0    0    -1  
$EndComp
Connection ~ 6750 4950
$Comp
L Device:R R7
U 1 1 603889A0
P 7950 4750
F 0 "R7" H 8020 4796 50  0000 L CNN
F 1 "10k" H 8020 4705 50  0000 L CNN
F 2 "" V 7880 4750 50  0001 C CNN
F 3 "~" H 7950 4750 50  0001 C CNN
	1    7950 4750
	1    0    0    -1  
$EndComp
Wire Wire Line
	7950 4900 7950 4950
Wire Wire Line
	6750 4550 6750 4450
Wire Wire Line
	6750 4450 6000 4450
Connection ~ 6750 4450
Wire Wire Line
	6750 5500 6750 4950
Wire Wire Line
	7950 4950 8400 4950
Wire Wire Line
	8400 4950 8400 4800
Wire Wire Line
	6750 4950 7500 4950
Connection ~ 7950 4950
Wire Wire Line
	8100 4600 7950 4600
$Comp
L Device:R R6
U 1 1 603975ED
P 8400 4100
F 0 "R6" H 8470 4146 50  0000 L CNN
F 1 "110k" H 8470 4055 50  0000 L CNN
F 2 "" V 8330 4100 50  0001 C CNN
F 3 "~" H 8400 4100 50  0001 C CNN
	1    8400 4100
	1    0    0    -1  
$EndComp
Wire Wire Line
	8400 4250 8400 4400
Wire Wire Line
	7950 4450 7950 4600
Wire Wire Line
	6750 4450 7500 4450
Connection ~ 7950 4600
Wire Wire Line
	8400 3950 7750 3950
Wire Wire Line
	6450 3950 6450 4750
$Comp
L Device:CP C5
U 1 1 6039C69C
P 7750 4200
F 0 "C5" H 7868 4246 50  0000 L CNN
F 1 "4.7 uF" H 7868 4155 50  0000 L CNN
F 2 "" H 7788 4050 50  0001 C CNN
F 3 "~" H 7750 4200 50  0001 C CNN
	1    7750 4200
	1    0    0    -1  
$EndComp
Wire Wire Line
	7750 4350 7750 4450
Connection ~ 7750 4450
Wire Wire Line
	7750 4450 7950 4450
Wire Wire Line
	7750 4050 7750 3950
Connection ~ 7750 3950
Wire Wire Line
	7750 3950 6450 3950
Wire Wire Line
	5300 1950 4900 1950
Connection ~ 4900 1950
Wire Wire Line
	4900 2250 5300 2250
$Comp
L Device:D CR15
U 1 1 6037F677
P 4900 2500
F 0 "CR15" V 4946 2420 50  0000 R CNN
F 1 "D" V 4855 2420 50  0000 R CNN
F 2 "" H 4900 2500 50  0001 C CNN
F 3 "~" H 4900 2500 50  0001 C CNN
	1    4900 2500
	0    -1   -1   0   
$EndComp
Wire Wire Line
	4900 2350 4900 2250
Connection ~ 4900 2250
$Comp
L Device:C C11
U 1 1 603817EA
P 5300 2450
F 0 "C11" H 5185 2404 50  0000 R CNN
F 1 "1000 pF" H 5185 2495 50  0000 R CNN
F 2 "" H 5338 2300 50  0001 C CNN
F 3 "~" H 5300 2450 50  0001 C CNN
	1    5300 2450
	-1   0    0    1   
$EndComp
$Comp
L Device:D CR10
U 1 1 60387747
P 6550 2450
F 0 "CR10" V 6596 2370 50  0000 R CNN
F 1 "D" V 6505 2370 50  0000 R CNN
F 2 "" H 6550 2450 50  0001 C CNN
F 3 "~" H 6550 2450 50  0001 C CNN
	1    6550 2450
	0    -1   -1   0   
$EndComp
$Comp
L Device:R R11
U 1 1 6038CF7D
P 6900 2450
F 0 "R11" H 6970 2496 50  0000 L CNN
F 1 "330" H 6970 2405 50  0000 L CNN
F 2 "" V 6830 2450 50  0001 C CNN
F 3 "~" H 6900 2450 50  0001 C CNN
	1    6900 2450
	1    0    0    -1  
$EndComp
Wire Wire Line
	6550 2600 6850 2600
Connection ~ 6550 2600
$Comp
L Device:R R18
U 1 1 603920A1
P 6250 2450
F 0 "R18" H 6320 2496 50  0000 L CNN
F 1 "270" H 6320 2405 50  0000 L CNN
F 2 "" V 6180 2450 50  0001 C CNN
F 3 "~" H 6250 2450 50  0001 C CNN
	1    6250 2450
	1    0    0    -1  
$EndComp
Wire Wire Line
	6250 2600 6550 2600
Connection ~ 6250 2600
Connection ~ 4150 3650
$Comp
L Device:D CR11
U 1 1 603BCE4C
P 5050 3000
F 0 "CR11" V 5004 2921 50  0000 R CNN
F 1 "D" V 5095 2921 50  0000 R CNN
F 2 "" H 5050 3000 50  0001 C CNN
F 3 "~" H 5050 3000 50  0001 C CNN
	1    5050 3000
	0    1    1    0   
$EndComp
Wire Wire Line
	5050 3300 5050 3250
$Comp
L Device:D CR13
U 1 1 603BFED7
P 6250 3500
F 0 "CR13" V 6296 3420 50  0000 R CNN
F 1 "D" V 6205 3420 50  0000 R CNN
F 2 "" H 6250 3500 50  0001 C CNN
F 3 "~" H 6250 3500 50  0001 C CNN
	1    6250 3500
	0    -1   -1   0   
$EndComp
Wire Wire Line
	6250 3800 6250 3650
Connection ~ 6250 3350
Wire Wire Line
	6250 2600 6250 3350
Connection ~ 6250 5500
Wire Wire Line
	6250 5500 6750 5500
$Comp
L Device:D CR14
U 1 1 603C45EC
P 6250 3950
F 0 "CR14" V 6296 3870 50  0000 R CNN
F 1 "D" V 6205 3870 50  0000 R CNN
F 2 "" H 6250 3950 50  0001 C CNN
F 3 "~" H 6250 3950 50  0001 C CNN
	1    6250 3950
	0    -1   -1   0   
$EndComp
Wire Wire Line
	6250 4100 6250 5500
$Comp
L Device:C C6
U 1 1 60400B05
P 5050 3450
F 0 "C6" H 4936 3496 50  0000 R CNN
F 1 "0.47 uF" H 4936 3405 50  0000 R CNN
F 2 "" H 5088 3300 50  0001 C CNN
F 3 "~" H 5050 3450 50  0001 C CNN
	1    5050 3450
	1    0    0    -1  
$EndComp
Wire Wire Line
	4150 2700 4150 3650
$Comp
L Device:D CR6
U 1 1 60434B76
P 5500 3250
F 0 "CR6" H 5500 3467 50  0000 C CNN
F 1 "D" H 5500 3376 50  0000 C CNN
F 2 "" H 5500 3250 50  0001 C CNN
F 3 "~" H 5500 3250 50  0001 C CNN
	1    5500 3250
	1    0    0    -1  
$EndComp
Wire Wire Line
	5350 3250 5050 3250
Connection ~ 5050 3250
Wire Wire Line
	5050 3250 5050 3150
$Comp
L Device:D CR7
U 1 1 60444E9B
P 5900 3250
F 0 "CR7" H 5900 3467 50  0000 C CNN
F 1 "D" H 5900 3376 50  0000 C CNN
F 2 "" H 5900 3250 50  0001 C CNN
F 3 "~" H 5900 3250 50  0001 C CNN
	1    5900 3250
	1    0    0    -1  
$EndComp
Wire Wire Line
	5750 3250 5700 3250
$Comp
L Device:C C7
U 1 1 60449767
P 5700 3450
F 0 "C7" H 5815 3496 50  0000 L CNN
F 1 "0.1 uF" H 5815 3405 50  0000 L CNN
F 2 "" H 5738 3300 50  0001 C CNN
F 3 "~" H 5700 3450 50  0001 C CNN
	1    5700 3450
	1    0    0    -1  
$EndComp
Wire Wire Line
	5700 3300 5700 3250
Connection ~ 5700 3250
Wire Wire Line
	5700 3250 5650 3250
Connection ~ 4900 2650
Connection ~ 5900 2300
Wire Wire Line
	6250 2300 5900 2300
Wire Wire Line
	5900 2600 6250 2600
$Comp
L Device:D CR16
U 1 1 60383F06
P 5900 2450
F 0 "CR16" V 5946 2370 50  0000 R CNN
F 1 "D" V 5855 2370 50  0000 R CNN
F 2 "" H 5900 2450 50  0001 C CNN
F 3 "~" H 5900 2450 50  0001 C CNN
	1    5900 2450
	0    -1   -1   0   
$EndComp
Wire Wire Line
	7150 2700 7150 2250
Wire Wire Line
	7150 2250 6900 2250
Wire Wire Line
	6550 2250 6550 2300
Wire Wire Line
	6900 2300 6900 2250
Connection ~ 6900 2250
Wire Wire Line
	6900 2250 6550 2250
Wire Wire Line
	4150 2700 7150 2700
Wire Wire Line
	5900 2300 5300 2300
Wire Wire Line
	4900 2650 5050 2650
Wire Wire Line
	6000 3800 6000 3950
Connection ~ 6000 3950
Wire Wire Line
	6000 3950 6000 4450
Wire Wire Line
	6000 3500 6000 3350
Wire Wire Line
	3600 3950 6000 3950
$Comp
L Device:R R13
U 1 1 604CB3D8
P 5350 3450
F 0 "R13" H 5420 3496 50  0000 L CNN
F 1 "22" H 5420 3405 50  0000 L CNN
F 2 "" V 5280 3450 50  0001 C CNN
F 3 "~" H 5350 3450 50  0001 C CNN
	1    5350 3450
	1    0    0    -1  
$EndComp
Wire Wire Line
	5350 3300 5350 3250
Connection ~ 5350 3250
Wire Wire Line
	5350 3600 5700 3600
$Comp
L Device:D CR5
U 1 1 604D3A59
P 5350 2950
F 0 "CR5" V 5304 2870 50  0000 R CNN
F 1 "D" V 5395 2870 50  0000 R CNN
F 2 "" H 5350 2950 50  0001 C CNN
F 3 "~" H 5350 2950 50  0001 C CNN
	1    5350 2950
	0    1    1    0   
$EndComp
Wire Wire Line
	5350 3100 5350 3150
$Comp
L Device:R R12
U 1 1 604E4294
P 5700 2950
F 0 "R12" H 5770 2996 50  0000 L CNN
F 1 "220" H 5770 2905 50  0000 L CNN
F 2 "" V 5630 2950 50  0001 C CNN
F 3 "~" H 5700 2950 50  0001 C CNN
	1    5700 2950
	1    0    0    -1  
$EndComp
Wire Wire Line
	5700 2800 5350 2800
Wire Wire Line
	5700 3100 5700 3150
Wire Wire Line
	5700 3150 5350 3150
Connection ~ 5350 3150
Wire Wire Line
	5350 3150 5350 3250
$Comp
L Device:R R14
U 1 1 604EC0E8
P 5050 3950
F 0 "R14" H 5120 3996 50  0000 L CNN
F 1 "68" H 5120 3905 50  0000 L CNN
F 2 "" V 4980 3950 50  0001 C CNN
F 3 "~" H 5050 3950 50  0001 C CNN
	1    5050 3950
	1    0    0    -1  
$EndComp
Wire Wire Line
	5050 3600 5050 3800
Wire Wire Line
	4150 3650 4150 4300
Connection ~ 4150 5500
Wire Wire Line
	4150 5500 4050 5500
Connection ~ 4150 4300
Wire Wire Line
	4150 4300 4150 5500
Wire Wire Line
	4150 5500 6250 5500
$Comp
L Device:D CR12
U 1 1 605262F4
P 5050 4400
F 0 "CR12" V 5096 4320 50  0000 R CNN
F 1 "D" V 5005 4320 50  0000 R CNN
F 2 "" H 5050 4400 50  0001 C CNN
F 3 "~" H 5050 4400 50  0001 C CNN
	1    5050 4400
	0    -1   -1   0   
$EndComp
Wire Wire Line
	5050 4250 5050 4200
$Comp
L Device:C C9
U 1 1 6052EBB2
P 5550 4500
F 0 "C9" H 5665 4546 50  0000 L CNN
F 1 "0.1 uF" H 5665 4455 50  0000 L CNN
F 2 "" H 5588 4350 50  0001 C CNN
F 3 "~" H 5550 4500 50  0001 C CNN
	1    5550 4500
	1    0    0    -1  
$EndComp
$Comp
L Device:R R5
U 1 1 60533E9B
P 5400 4850
F 0 "R5" H 5470 4896 50  0000 L CNN
F 1 "10k" H 5470 4805 50  0000 L CNN
F 2 "" V 5330 4850 50  0001 C CNN
F 3 "~" H 5400 4850 50  0001 C CNN
	1    5400 4850
	1    0    0    -1  
$EndComp
Wire Wire Line
	5400 4700 5400 4650
Wire Wire Line
	5400 4650 5050 4650
Wire Wire Line
	5050 4650 5050 4550
$Comp
L Isolator:CNY17-2 U1
U 1 1 60539BA3
P 5250 5950
F 0 "U1" H 5250 6275 50  0000 C CNN
F 1 "CNY17-2" H 5250 6184 50  0000 C CNN
F 2 "" H 5250 5950 50  0001 L CNN
F 3 "http://www.vishay.com/docs/83606/cny17.pdf" H 5250 5950 50  0001 L CNN
	1    5250 5950
	1    0    0    -1  
$EndComp
Wire Wire Line
	5550 5950 5750 5950
Wire Wire Line
	5750 5950 5750 4650
Wire Wire Line
	5750 4650 5550 4650
Connection ~ 5400 4650
$Comp
L Device:R R16
U 1 1 6054370B
P 6700 6050
F 0 "R16" H 6770 6096 50  0000 L CNN
F 1 "15k" H 6770 6005 50  0000 L CNN
F 2 "" V 6630 6050 50  0001 C CNN
F 3 "~" H 6700 6050 50  0001 C CNN
	1    6700 6050
	1    0    0    -1  
$EndComp
Wire Wire Line
	5550 6050 5750 6050
Wire Wire Line
	5750 6050 5750 6200
Wire Wire Line
	5750 6200 5900 6200
$Comp
L Device:C C12
U 1 1 60548F24
P 5900 6000
F 0 "C12" H 6015 6046 50  0000 L CNN
F 1 "10 nF" H 6015 5955 50  0000 L CNN
F 2 "" H 5938 5850 50  0001 C CNN
F 3 "~" H 5900 6000 50  0001 C CNN
	1    5900 6000
	1    0    0    -1  
$EndComp
Wire Wire Line
	5900 6150 5900 6200
Connection ~ 5900 6200
Wire Wire Line
	5900 5850 5550 5850
Wire Wire Line
	5900 6200 6300 6200
$Comp
L Device:R R19
U 1 1 6055F9C0
P 6300 6050
F 0 "R19" H 6370 6096 50  0000 L CNN
F 1 "110 k" H 6370 6005 50  0000 L CNN
F 2 "" V 6230 6050 50  0001 C CNN
F 3 "~" H 6300 6050 50  0001 C CNN
	1    6300 6050
	1    0    0    -1  
$EndComp
Connection ~ 6300 6200
Wire Wire Line
	6300 6200 6700 6200
Wire Wire Line
	5900 5850 6300 5850
Wire Wire Line
	6300 5850 6300 5900
Connection ~ 5900 5850
Wire Wire Line
	5050 4200 5900 4200
Wire Wire Line
	5900 4200 5900 5750
Wire Wire Line
	5900 5750 6700 5750
Wire Wire Line
	6700 5750 6700 5900
Connection ~ 5050 4200
Wire Wire Line
	5050 4200 5050 4100
Wire Wire Line
	5400 5000 5400 5250
Wire Wire Line
	5400 5250 9000 5250
Wire Wire Line
	9000 5250 9000 3950
Wire Wire Line
	9000 3950 8400 3950
Connection ~ 8400 3950
Connection ~ 5550 4650
Wire Wire Line
	5550 4650 5400 4650
Wire Wire Line
	5550 4350 5550 4150
Wire Wire Line
	5550 4150 6700 4150
Wire Wire Line
	6700 4150 6700 3350
Connection ~ 6700 3350
Wire Wire Line
	6700 3350 6250 3350
Wire Wire Line
	7500 4900 7500 4950
Connection ~ 7500 4950
Wire Wire Line
	7500 4950 7950 4950
Wire Wire Line
	7500 4500 7500 4450
Connection ~ 7500 4450
Wire Wire Line
	7500 4450 7750 4450
$Comp
L Device:C C10
U 1 1 6037B348
P 5300 2100
F 0 "C10" H 5415 2146 50  0000 L CNN
F 1 "4700 pF" H 5415 2055 50  0000 L CNN
F 2 "" H 5338 1950 50  0001 C CNN
F 3 "~" H 5300 2100 50  0001 C CNN
	1    5300 2100
	1    0    0    -1  
$EndComp
$Comp
L Device:C C8
U 1 1 605C1276
P 7050 6050
F 0 "C8" H 7165 6096 50  0000 L CNN
F 1 "4.7 nF" H 7165 6005 50  0000 L CNN
F 2 "" H 7088 5900 50  0001 C CNN
F 3 "~" H 7050 6050 50  0001 C CNN
	1    7050 6050
	1    0    0    -1  
$EndComp
Wire Wire Line
	7050 6200 6700 6200
Connection ~ 6700 6200
$Comp
L Device:D CR9
U 1 1 605C8E85
P 7500 5650
F 0 "CR9" V 7546 5570 50  0000 R CNN
F 1 "D" V 7455 5570 50  0000 R CNN
F 2 "" H 7500 5650 50  0001 C CNN
F 3 "~" H 7500 5650 50  0001 C CNN
	1    7500 5650
	0    -1   -1   0   
$EndComp
$Comp
L Device:D CR8
U 1 1 605CA436
P 7500 6050
F 0 "CR8" V 7454 6130 50  0000 L CNN
F 1 "D" V 7545 6130 50  0000 L CNN
F 2 "" H 7500 6050 50  0001 C CNN
F 3 "~" H 7500 6050 50  0001 C CNN
	1    7500 6050
	0    1    1    0   
$EndComp
Wire Wire Line
	7050 6200 7500 6200
Connection ~ 7050 6200
Wire Wire Line
	7500 5800 7500 5900
Wire Wire Line
	7500 5450 7500 5500
Wire Wire Line
	7050 5900 7050 5450
Connection ~ 7050 3350
Wire Wire Line
	7050 3350 6700 3350
Connection ~ 7050 5450
Wire Wire Line
	7050 5450 7050 3350
Wire Wire Line
	7050 5450 7500 5450
Wire Wire Line
	7200 4350 7200 4700
Wire Wire Line
	7200 4050 7200 3350
Wire Wire Line
	7050 3350 7200 3350
Text Notes 3750 4450 0    50   ~ 0
115 V operation
$Comp
L Device:R R9
U 1 1 606BC25A
P 6450 2950
F 0 "R9" H 6520 2996 50  0000 L CNN
F 1 "100" H 6520 2905 50  0000 L CNN
F 2 "" V 6380 2950 50  0001 C CNN
F 3 "~" H 6450 2950 50  0001 C CNN
	1    6450 2950
	1    0    0    -1  
$EndComp
Wire Wire Line
	6450 2800 5700 2800
Connection ~ 5700 2800
Wire Wire Line
	1650 3750 1900 3750
Connection ~ 1900 3750
Wire Wire Line
	2100 3750 1900 3750
Wire Wire Line
	2100 4050 2100 4150
Wire Wire Line
	2100 4250 2100 4150
Connection ~ 2100 4150
Wire Wire Line
	2100 4150 2500 4150
Wire Wire Line
	2100 4550 1900 4550
Connection ~ 1900 4550
Wire Wire Line
	1650 4550 1900 4550
Wire Wire Line
	1650 4250 1650 4150
Connection ~ 1650 4150
Wire Wire Line
	1650 4150 1650 4050
Wire Wire Line
	3100 4700 3100 5500
Connection ~ 3100 5500
Wire Wire Line
	3100 5500 3300 5500
Wire Wire Line
	6450 3100 7400 3100
Wire Wire Line
	7550 3150 7550 3800
Wire Wire Line
	7550 3800 9050 3800
Wire Wire Line
	9050 3800 9050 6200
Wire Wire Line
	9050 6200 7500 6200
Connection ~ 7500 6200
Connection ~ 6450 2800
$Comp
L Device:Q_NPN_CBE Q4
U 1 1 60394D45
P 7750 3150
F 0 "Q4" H 7941 3196 50  0000 L CNN
F 1 "BC489" H 7941 3105 50  0000 L CNN
F 2 "" H 7950 3250 50  0001 C CNN
F 3 "~" H 7750 3150 50  0001 C CNN
	1    7750 3150
	1    0    0    -1  
$EndComp
Wire Wire Line
	7200 3350 7850 3350
Connection ~ 7200 3350
Wire Wire Line
	7400 3100 7400 2950
Wire Wire Line
	7400 2950 7850 2950
Connection ~ 7400 2950
Wire Wire Line
	7500 2400 7500 3150
Wire Wire Line
	7500 3150 7550 3150
Connection ~ 7550 3150
Wire Wire Line
	6050 3250 6050 2000
$Comp
L Device:R R15
U 1 1 60408015
P 7900 1700
F 0 "R15" H 7970 1746 50  0000 L CNN
F 1 "22" H 7970 1655 50  0000 L CNN
F 2 "" V 7830 1700 50  0001 C CNN
F 3 "~" H 7900 1700 50  0001 C CNN
	1    7900 1700
	1    0    0    -1  
$EndComp
Wire Wire Line
	7400 2000 7400 1950
Wire Wire Line
	7400 2950 7400 2600
Wire Wire Line
	5900 4200 6800 4200
Wire Wire Line
	6800 4200 6800 2900
Wire Wire Line
	6800 2900 7300 2900
Connection ~ 5900 4200
Wire Wire Line
	5050 3250 4250 3250
Wire Wire Line
	4250 3250 4250 1750
Wire Wire Line
	4250 1750 7100 1750
$Comp
L Transistor_BJT:MJE13005G Q7
U 1 1 6042D7A8
P 8900 2500
F 0 "Q7" H 9092 2546 50  0000 L CNN
F 1 "MJE13005G" H 9092 2455 50  0000 L CNN
F 2 "Package_TO_SOT_THT:TO-220-3_Vertical" H 9150 2425 50  0001 L CIN
F 3 "http://www.onsemi.com/pub_link/Collateral/MJE13005-D.PDF" H 8900 2500 50  0001 L CNN
	1    8900 2500
	1    0    0    -1  
$EndComp
Wire Wire Line
	4900 2650 4500 2650
Wire Wire Line
	4500 2650 4500 1400
Wire Wire Line
	4500 1400 9000 1400
Wire Wire Line
	9000 1400 9000 1950
Wire Wire Line
	9000 3550 6850 3550
Wire Wire Line
	6850 3550 6850 2600
Wire Wire Line
	9000 2700 9000 2750
Connection ~ 6850 2600
Wire Wire Line
	6850 2600 6900 2600
Connection ~ 5750 3250
Wire Wire Line
	5750 3250 5750 3150
Wire Wire Line
	5750 3150 6350 3150
Wire Wire Line
	6350 3150 6350 3250
Wire Wire Line
	6350 3250 7300 3250
Wire Wire Line
	7300 3250 7300 3450
Wire Wire Line
	7300 3450 8650 3450
Wire Wire Line
	8650 3450 8650 2500
Wire Wire Line
	8650 2500 8700 2500
NoConn ~ 850  5100
$Comp
L power:PWR_FLAG #FLG0101
U 1 1 604704D2
P 3950 6050
F 0 "#FLG0101" H 3950 6125 50  0001 C CNN
F 1 "PWR_FLAG" H 3950 6223 50  0000 C CNN
F 2 "" H 3950 6050 50  0001 C CNN
F 3 "~" H 3950 6050 50  0001 C CNN
	1    3950 6050
	-1   0    0    1   
$EndComp
Wire Wire Line
	3950 6050 3950 5850
Connection ~ 3950 5850
Wire Wire Line
	3600 3100 3600 3050
Wire Wire Line
	3600 1950 4900 1950
Wire Wire Line
	3500 3050 3600 3050
Connection ~ 3600 3050
Wire Wire Line
	3600 3050 3600 1950
Wire Wire Line
	3600 3500 3600 3400
Wire Wire Line
	5300 2600 5300 2650
Wire Wire Line
	5050 2850 5050 2650
Connection ~ 5050 2650
Wire Wire Line
	5050 2650 5300 2650
Wire Wire Line
	1050 5700 1050 5200
Wire Wire Line
	1050 5200 850  5200
Wire Wire Line
	1050 5700 1300 5700
Wire Wire Line
	1300 5400 1300 5700
Connection ~ 1300 5700
Wire Wire Line
	1300 5700 4400 5700
Wire Wire Line
	1300 5100 1300 5000
Connection ~ 1300 5000
Wire Wire Line
	1300 5000 850  5000
Wire Wire Line
	1300 4150 1650 4150
Wire Wire Line
	1900 3650 2750 3650
Wire Wire Line
	2750 3650 2750 3950
Wire Wire Line
	1300 4150 1300 5000
Wire Wire Line
	1900 3650 1900 3750
Wire Wire Line
	1900 5500 3100 5500
Wire Wire Line
	1900 4550 1900 5500
$Comp
L Device:R R2
U 1 1 60372535
P 3850 2600
F 0 "R2" V 3643 2600 50  0000 C CNN
F 1 "6R8" V 3734 2600 50  0000 C CNN
F 2 "" V 3780 2600 50  0001 C CNN
F 3 "~" H 3850 2600 50  0001 C CNN
	1    3850 2600
	0    1    1    0   
$EndComp
Wire Wire Line
	2500 4150 2500 2600
Wire Wire Line
	2500 2600 3150 2600
Wire Wire Line
	3700 2600 3450 2600
Wire Wire Line
	4000 2600 4400 2600
Wire Wire Line
	4400 2600 4400 4300
Connection ~ 4400 4300
Wire Wire Line
	4150 4300 4400 4300
Wire Wire Line
	4400 5050 4400 4300
Wire Wire Line
	4400 5350 4400 5700
$Comp
L Connector_Generic:Conn_01x06 J98
U 1 1 60650CAD
P 9400 1750
F 0 "J98" H 9480 1742 50  0000 L CNN
F 1 "mains side" H 9480 1651 50  0000 L CNN
F 2 "" H 9400 1750 50  0001 C CNN
F 3 "~" H 9400 1750 50  0001 C CNN
	1    9400 1750
	1    0    0    -1  
$EndComp
$Comp
L Connector_Generic:Conn_01x06 J99
U 1 1 60651810
P 10050 1500
F 0 "J99" H 9968 975 50  0000 C CNN
F 1 "other side" H 9968 1066 50  0000 C CNN
F 2 "" H 10050 1500 50  0001 C CNN
F 3 "~" H 10050 1500 50  0001 C CNN
	1    10050 1500
	-1   0    0    1   
$EndComp
Wire Notes Line
	9300 900  10150 900 
Wire Notes Line
	10150 2150 9300 2150
Text Notes 9250 850  0    50   ~ 0
T1 - transformer\n(unknown configuration)\n
Wire Wire Line
	4900 1950 4900 1300
Wire Wire Line
	4900 1300 9200 1300
Wire Wire Line
	9200 1300 9200 1550
Wire Wire Line
	9200 1650 8250 1650
Wire Wire Line
	9200 1750 9100 1750
Wire Wire Line
	9100 1750 9100 2750
Wire Wire Line
	9100 2750 9000 2750
Connection ~ 9000 2750
Wire Wire Line
	9000 2750 9000 3550
NoConn ~ 9200 1850
Wire Wire Line
	9200 1950 9000 1950
Connection ~ 9000 1950
Wire Wire Line
	9000 1950 9000 2300
NoConn ~ 9200 2050
Text Notes 9100 2350 0    50   ~ 0
(see annotated solder side picture of PCB)\n(for pin placement)
$Sheet
S 10300 1150 800  1050
U 6040BA4B
F0 "Power_upper_left" 50
F1 "power_u_l.sch" 50
F2 "J99_1" B L 10300 1700 50 
F3 "J99_2" B L 10300 1600 50 
F4 "J99_3" B L 10300 1500 50 
F5 "J99_4" B L 10300 1400 50 
F6 "J99_5" B L 10300 1300 50 
F7 "J99_6" B L 10300 1200 50 
F8 "Opto_1" B R 11100 1650 50 
F9 "Opto_2" B R 11100 1550 50 
F10 "from_R24_to_R73" I R 11100 1800 50 
F11 "from_J2_pin_8" I R 11100 1900 50 
F12 "from_J2_pin_12" I R 11100 2100 50 
F13 "from_J2_pin_11" I R 11100 2000 50 
$EndSheet
Wire Wire Line
	10250 1700 10300 1700
Wire Wire Line
	10250 1600 10300 1600
Wire Wire Line
	10250 1500 10300 1500
Wire Wire Line
	10250 1400 10300 1400
Wire Wire Line
	10250 1300 10300 1300
Wire Wire Line
	10250 1200 10300 1200
Text Label 11450 1550 0    50   ~ 0
Opt_2
Wire Wire Line
	4950 6050 4700 6050
Text Label 4700 6050 0    50   ~ 0
Opt_2
Text Label 4700 5850 0    50   ~ 0
Opt_1
Text Label 11450 1650 0    50   ~ 0
Opt_1
$Sheet
S 10050 2800 950  1050
U 604C14A0
F0 "Power_upper_right" 50
F1 "power_upper_right.sch" 50
F2 "from_R73_to_R24" I L 10050 2900 50 
F3 "from_J3_pin_4" I L 10050 3000 50 
F4 "from_CR81_cathode" I L 10050 3250 50 
F5 "to_J2_pin_11" I L 10050 3100 50 
$EndSheet
$Comp
L Device:Q_NPN_EBC Q6
U 1 1 6072AC46
P 7300 1750
F 0 "Q6" H 7491 1796 50  0000 L CNN
F 1 "MPSW01" H 7491 1705 50  0000 L CNN
F 2 "" H 7500 1850 50  0001 C CNN
F 3 "~" H 7300 1750 50  0001 C CNN
	1    7300 1750
	1    0    0    -1  
$EndComp
Wire Wire Line
	7400 1550 7400 1500
Wire Wire Line
	7400 1500 7900 1500
Wire Wire Line
	7900 1500 7900 1550
Wire Wire Line
	7900 1850 7900 2350
Connection ~ 7900 2350
Wire Wire Line
	8250 2350 8250 1650
Wire Wire Line
	7900 2350 8250 2350
Wire Wire Line
	7300 2350 7300 2900
Wire Wire Line
	7300 2350 7900 2350
Wire Wire Line
	7400 2000 6050 2000
Wire Wire Line
	10000 2650 10000 2900
Wire Wire Line
	10000 2900 10050 2900
Wire Wire Line
	10050 3000 9950 3000
Wire Wire Line
	9950 3000 9950 2600
Wire Wire Line
	11100 1550 11450 1550
Wire Wire Line
	11100 1650 11450 1650
Wire Notes Line
	9300 900  9300 2150
Wire Notes Line
	10150 900  10150 2150
Wire Wire Line
	11400 1800 11400 2650
Wire Wire Line
	11100 1800 11400 1800
Wire Wire Line
	10000 2650 11400 2650
Wire Wire Line
	11250 1900 11250 2600
Wire Wire Line
	11100 1900 11250 1900
Wire Wire Line
	9950 2600 11250 2600
Wire Wire Line
	11100 2100 11150 2100
Wire Wire Line
	11150 2100 11150 2450
Wire Wire Line
	9750 2450 11150 2450
Wire Wire Line
	9750 3250 10050 3250
Wire Wire Line
	9750 2450 9750 3250
Wire Wire Line
	10050 3100 9850 3100
Wire Wire Line
	9850 3100 9850 2550
Wire Wire Line
	9850 2550 11200 2550
Wire Wire Line
	11200 2550 11200 2000
Wire Wire Line
	11200 2000 11100 2000
Wire Wire Line
	4700 5850 4950 5850
Wire Wire Line
	3600 3500 3950 3500
Wire Wire Line
	3950 3500 3950 5850
Wire Wire Line
	5750 3350 6000 3350
Wire Wire Line
	5750 3250 5750 3350
$Comp
L Device:Q_PNP_CBE Q5
U 1 1 6092693A
P 7750 2600
F 0 "Q5" H 7941 2646 50  0000 L CNN
F 1 "BC490B" H 7941 2555 50  0000 L CNN
F 2 "" H 7950 2700 50  0001 C CNN
F 3 "~" H 7750 2600 50  0001 C CNN
	1    7750 2600
	1    0    0    -1  
$EndComp
Wire Wire Line
	7400 2600 7550 2600
Wire Wire Line
	7500 2400 7850 2400
Wire Wire Line
	6450 2800 7850 2800
$EndSCHEMATC
